https://plus.google.com/+JonSchull/posts/ZMZCRQUPcw8
https://plus.google.com/+JonSchull/posts/f8E1zAHiXKL
https://plus.google.com/104405649593463541922/posts/Jd75QWPnUyX
https://plus.google.com/116177527871883301032/posts/bnVCj1qfiza
https://plus.google.com/117378493405983803043/posts/gfUV2uN29y2
https://plus.google.com/117378493405983803043/posts/34Sp3HjwaVP
https://plus.google.com/110349802375674603796/posts/9ms24tA1b31
https://plus.google.com/101778915483023229467/posts/LSdDUfPL4hX
https://plus.google.com/+JonSchull/posts/SZDAsommGTN
https://plus.google.com/114748769235444656292/posts/jQjVhCt5UZ9
https://plus.google.com/104359171994284458545/posts/AeiRca94j7h
https://plus.google.com/117579949973258773116/posts/RC13iTzKHsM
https://plus.google.com/117388096462688165052/posts/M3LZxGW388S
https://plus.google.com/+MohamedAbuelhagag/posts/MhzLCP7cf2E
https://plus.google.com/116630170302055169893/posts/8CJM71gj2wL
https://plus.google.com/+Myotriton/posts/hsyYJyu5Yr3
https://plus.google.com/111743060855700480937/posts/CZgyXkbCzXF
https://plus.google.com/109768266033402232643/posts/6tRRg9E3Zbc
https://plus.google.com/117579949973258773116/posts/MJitKWa1JcS
https://plus.google.com/+JonSchull/posts/4udEKt3ZteJ
https://plus.google.com/115810399850545696521/posts/GoU7J4k836N
https://plus.google.com/101778915483023229467/posts/KxAU7YQtvRk
https://plus.google.com/101778915483023229467/posts/6DRKzfnvTLj
https://plus.google.com/116402575791054442665/posts/Was4jtxmFpW
https://plus.google.com/106091651277142407946/posts/JfSsuXsEeku
https://plus.google.com/105767891268944338004/posts/iRiShS6VZRM
https://plus.google.com/+JoeCross98/posts/LefsoXJhwa7
https://plus.google.com/115580446896687100601/posts/gn1M1gyZiM3
https://plus.google.com/116018279380253227328/posts/iHHDLNuBPmf
https://plus.google.com/117094616864857722524/posts/V6fqudHZhkj
https://plus.google.com/115254886637436748563/posts/GPQqCHyBhGw
https://plus.google.com/115810399850545696521/posts/frKHTznnMJh
https://plus.google.com/115771983852198422886/posts/2jpHdwMTvvm
https://plus.google.com/115049287566323746094/posts/TZSqineqPrf
https://plus.google.com/111415364612889910977/posts/ZCJjrLGDdMS
https://plus.google.com/104405649593463541922/posts/LPiDUAktaWU
https://plus.google.com/100681542310152396552/posts/3SGJdQnzR4E
https://plus.google.com/+JoeCross98/posts/ZrXtSbSQbyg
https://plus.google.com/106883307778157718279/posts/jYkMX354S5Y
https://plus.google.com/109660538400604979429/posts/2BqAfbv95Yc
https://plus.google.com/+JonSchull/posts/b7X2RR96xjE
https://plus.google.com/105636905078262744686/posts/SLZfMR7844K
https://plus.google.com/+ArtieMoskowitz/posts/g8MaQrvWrZu
https://plus.google.com/+JoeCross98/posts/DxcAfsdte9y
https://plus.google.com/+JonSchull/posts/ASkyezPbQG5
https://plus.google.com/115254886637436748563/posts/LFiX1p3cfBx
https://plus.google.com/114150067685166238613/posts/FgmM5HBKJV4
https://plus.google.com/+JonSchull/posts/cSo8iu9ZJhp
https://plus.google.com/117378493405983803043/posts/9rrCReUdgb3
https://plus.google.com/102949249122884214306/posts/3oCePCBoiFk
https://plus.google.com/+JonSchull/posts/LDb2BRtxxdL
https://plus.google.com/+JonSchull/posts/7haUMvFCr4o
https://plus.google.com/104405649593463541922/posts/SwEMN3XLchL
https://plus.google.com/+LairdPopkin/posts/i9CkK61vUku
https://plus.google.com/+Myotriton/posts/25eyNjKfeCK
https://plus.google.com/110337357858766708212/posts/dTmf59TedUM
https://plus.google.com/+JonSchull/posts/5i7CMHfMWRV
https://plus.google.com/+JonSchull/posts/Tu5qWB3NUhm
https://plus.google.com/+JonSchull/posts/PnqFT5DBemj
https://plus.google.com/+JonSchull/posts/WYHV3NnxZQh
https://plus.google.com/114927478597310484690/posts/8T2VwBrDghF
https://plus.google.com/+JamesBricknell/posts/UdJh4uQ5NEw
https://plus.google.com/+JoeCross98/posts/GNuG8qriars
https://plus.google.com/+JonSchull/posts/4hHoSxnYE1j
https://plus.google.com/111743060855700480937/posts/du5vj2STYPg
https://plus.google.com/109477653285830830921/posts/2TdevUqQ85u
https://plus.google.com/+JonSchull/posts/MGo9UZAJ6yy
https://plus.google.com/+robotbuilder/posts/EthrkyrXAXv
https://plus.google.com/+JohnThorpIreland/posts/RFpBxNXojRj
https://plus.google.com/114461303363758402284/posts/9Y1axCNsnqJ
https://plus.google.com/114942323043624636591/posts/1HFMPREZxZb
https://plus.google.com/+JonSchull/posts/Kmcr829Pdyk
https://plus.google.com/115254886637436748563/posts/Qij8P632CvB
https://plus.google.com/+JoeCross98/posts/TssXPiWhSeS
https://plus.google.com/110625189525523614317/posts/AcbgeczcyDS
https://plus.google.com/+TroubleSturm/posts/F8C1GGCg9YD
https://plus.google.com/116979887276298088529/posts/YXJ3msKDnXc
https://plus.google.com/115254886637436748563/posts/UZNsDpXLfNS
https://plus.google.com/104405649593463541922/posts/28KfiRXbd8r
https://plus.google.com/118427042528990605638/posts/Kyi7nEij3wV
https://plus.google.com/116443786300430688146/posts/ZTLWFrByGsx
https://plus.google.com/115254886637436748563/posts/JkweTEb9eWi
https://plus.google.com/115771983852198422886/posts/WyPSVE3iCmf
https://plus.google.com/114914546233044145534/posts/2sX8A1Qo4An
https://plus.google.com/+GabrielMedina23/posts/ZoB2mJjskix
https://plus.google.com/110607375119839450523/posts/M41dbE7bMQ4
https://plus.google.com/114807589674243963172/posts/ZXFSywdLrrV
https://plus.google.com/+JonSchull/posts/95eNV6tpDow
https://plus.google.com/117348992149387982438/posts/NaWZ6bpDdAk
https://plus.google.com/117269268875716140855/posts/WVVKtoGJ7vM
https://plus.google.com/110337357858766708212/posts/UrDgPQY2dbK
https://plus.google.com/109660538400604979429/posts/jF4HKW5fqFk
https://plus.google.com/+JonSchull/posts/CkQ9Quq6xyg
https://plus.google.com/105797909841140440265/posts/Lv6W9RgpfMm
https://plus.google.com/114942323043624636591/posts/Tdsw2g8f8EK
https://plus.google.com/114150067685166238613/posts/JDtQ8zLNUeE
https://plus.google.com/+LigayaRobberts/posts/5cf3rAXPCk1
https://plus.google.com/108069952106177381834/posts/41Qb6inFHwX
https://plus.google.com/+JonSchull/posts/RN52CRdRs4h
https://plus.google.com/+JonSchull/posts/fGLRuXu6yh7
https://plus.google.com/105816562805889414619/posts/gUjHozfxn4k
https://plus.google.com/+JoeCross98/posts/3gyNuC72hVh
https://plus.google.com/115810399850545696521/posts/M2VQD5WUbxv
https://plus.google.com/101492559586551597270/posts/NkjWrHLjL5Q
https://plus.google.com/+JosephFairleyENABLESIENA/posts/GTZqUWTQakQ
https://plus.google.com/115810399850545696521/posts/VLsLR1waUuh
https://plus.google.com/114150067685166238613/posts/gKGKmRXiBzN
https://plus.google.com/105797909841140440265/posts/Tfi9EcpFB95
https://plus.google.com/118109588008025428145/posts/NSrMY562gei
https://plus.google.com/110597623395950036146/posts/ZX1S5x6J2HW
https://plus.google.com/117712824076122402529/posts/W5ZZ2x1Z795
https://plus.google.com/105500321495924551398/posts/d6xYGMETu9h
https://plus.google.com/+JamesBricknell/posts/gTvzMW6RDo3
https://plus.google.com/103590293948519605757/posts/3PzYazeNHTF
https://plus.google.com/101910702039583067665/posts/i2Yd2iqw4ws
https://plus.google.com/+ArtieMoskowitz/posts/f5xaS5LxnPG
https://plus.google.com/116842532143511553148/posts/GQjAwZFRVG6
https://plus.google.com/+JonSchull/posts/ZTz5hMrc95R
https://plus.google.com/116782776770548682354/posts/Y2ECqZGaQ1h
https://plus.google.com/+LukeJohnston_Google/posts/2k9YaMDJUNi
https://plus.google.com/109660538400604979429/posts/TrkRihqGQmF
https://plus.google.com/+GordChristmas/posts/iARkz3AxdYV
https://plus.google.com/115191143865737095487/posts/5spDWprwyHH
https://plus.google.com/+JohnThorpIreland/posts/hfat4m1HmGy
https://plus.google.com/105680394090836293743/posts/8euLwKRyYnF
https://plus.google.com/101823439333955577616/posts/AGw4j8T3E3A
https://plus.google.com/+MohamedAbuelhagag/posts/DvtusqTfuB9
https://plus.google.com/109660538400604979429/posts/V8iSFtBbXyp
https://plus.google.com/103590293948519605757/posts/VwWqNPyCgSX
https://plus.google.com/106091651277142407946/posts/6FbfvMJQvby
https://plus.google.com/+MohamedAbuelhagag/posts/UvmU37XbPvr
https://plus.google.com/+JonSchull/posts/Mn7k61HyWfn
https://plus.google.com/+JonSchull/posts/S4ea6MXCgZD
https://plus.google.com/+JonSchull/posts/b5Ceg7kQdPB
https://plus.google.com/+JonSchull/posts/PUcgJNdKoJc
https://plus.google.com/+JonSchull/posts/M1v58yQGU42
https://plus.google.com/104405649593463541922/posts/ThaCjwGqMB4
https://plus.google.com/107776083591977728926/posts/C9VtdL4XmUt
https://plus.google.com/104656427678877892756/posts/h3pkVwQVsrY
https://plus.google.com/105534168599582502277/posts/d5Q8D8kcKmd
https://plus.google.com/112702528248703731461/posts/4JzycNsR411
https://plus.google.com/112234964586634602201/posts/9RCtLeThp4E
https://plus.google.com/109660538400604979429/posts/jRneEWALcMe
https://plus.google.com/+JonSchull/posts/WEZwBQc8Dcf
https://plus.google.com/106324213307223921574/posts/gq5k5pPFfxh
https://plus.google.com/103137477246301415544/posts/ijTDJZHSQ8P
https://plus.google.com/115445064494283776524/posts/JwwquKHBB2C
https://plus.google.com/+TroubleSturm/posts/dTAsrJHEwCh
https://plus.google.com/115271222992779243803/posts/HkAPSkVuByM
https://plus.google.com/104656427678877892756/posts/aiDvaiX21FR
https://plus.google.com/118396690658579896401/posts/gSiKLWk4SBX
https://plus.google.com/109768266033402232643/posts/27n7u2ECSVv
https://plus.google.com/110337357858766708212/posts/GSJEvRHaA6q
https://plus.google.com/103015456434126891907/posts/i7qDcMy8FGX
https://plus.google.com/109691755426990214115/posts/KqjH1rwUYxp
https://plus.google.com/115771983852198422886/posts/DCgQtmMdSPL
https://plus.google.com/117579949973258773116/posts/dd8x5odatBj
https://plus.google.com/+JonSchull/posts/CkZXPMdTufn
https://plus.google.com/111276581883886602694/posts/LkzwkpMYf5h
https://plus.google.com/+AshrafulNoyan/posts/TGcAnauzPCS
https://plus.google.com/111650977983474044811/posts/7qvYJV5CHTY
https://plus.google.com/118396690658579896401/posts/gUqWyxTrgDx
https://plus.google.com/100275203952627967377/posts/gjTQeD15WAd
https://plus.google.com/104599514406181642721/posts/5xun29ngL1f
https://plus.google.com/104656427678877892756/posts/AUu4AnuR1qM
https://plus.google.com/+JeromeCasta%C3%B1eda/posts/hivgzzYHqti
https://plus.google.com/118396690658579896401/posts/NsbRQfWtuv6
https://plus.google.com/+AndreasBastian/posts/3WDF9sVgxMm
https://plus.google.com/111228746602989678854/posts/ELiqfoVt1SA
https://plus.google.com/114927478597310484690/posts/R7oTVvdWGZ9
https://plus.google.com/105194569659834772439/posts/7ReCSwwPt3K
https://plus.google.com/113429270326471312185/posts/dqMUmcfvQbJ
https://plus.google.com/106965400134245754056/posts/VAbYfUs8zLV
https://plus.google.com/110905531140463337892/posts/BBNxpKAzKoi
https://plus.google.com/110905531140463337892/posts/FN9EfCEASmm
https://plus.google.com/+JonSchull/posts/XxEER6PvTJa
https://plus.google.com/101218655994792343753/posts/KT27L5tKn1R
https://plus.google.com/103716704627599607326/posts/K51LpikKT61
https://plus.google.com/114914546233044145534/posts/26VMw3TQGLU
https://plus.google.com/+RicardoPereiradesigner/posts/BqWeBLPuM1a
https://plus.google.com/110193709489361863349/posts/5SbGKaXv1zv
https://plus.google.com/111467505746745760268/posts/U1HgozEzpgc
https://plus.google.com/114914546233044145534/posts/TSh7i4Qxtj2
https://plus.google.com/104656427678877892756/posts/U5CLV9EAHQP
https://plus.google.com/100730172843802370365/posts/ZXvQwK2vCzD
https://plus.google.com/+JonSchull/posts/bVrak7cyB1C
https://plus.google.com/105636905078262744686/posts/6T2WqJVFRs3
https://plus.google.com/105636905078262744686/posts/FEvxHnCPoXU
https://plus.google.com/+JonSchull/posts/CqnPPNMSYgg
https://plus.google.com/110337357858766708212/posts/R8jbmDPoF1w
https://plus.google.com/104405649593463541922/posts/jkZzNtSqRpj
https://plus.google.com/+JonSchull/posts/F15Ko8CH8zQ
https://plus.google.com/+JonSchull/posts/MM7mfAngpns
https://plus.google.com/107071647805183961662/posts/Z81WaRBVSKF
https://plus.google.com/103434472558867718881/posts/5UCyETAT3hf
https://plus.google.com/116087108417609891703/posts/ALxmcZabBxx
https://plus.google.com/118441099906114076976/posts/DoKAXivzvwG
https://plus.google.com/102789456768082403987/posts/c68eCCVyiqF
https://plus.google.com/+RicardoPereiradesigner/posts/GsCQbnTFdpz
https://plus.google.com/110184113625382663018/posts/Cj7Yxv2TGfi
https://plus.google.com/115810399850545696521/posts/4DD8t5UoazF
https://plus.google.com/114914546233044145534/posts/8BQo1KPFTTm
https://plus.google.com/+FedericoCoca/posts/fkh23b3p8YC
https://plus.google.com/111010238944186044990/posts/QZhEsgyKW5e
https://plus.google.com/111010238944186044990/posts/eWFWi55t7sY
https://plus.google.com/+JonSchull/posts/CefWx6K3caR
https://plus.google.com/114776997749135038771/posts/U5AwDZh9mCU
https://plus.google.com/100683828360180525821/posts/KMdwJCqtnF1
https://plus.google.com/115810399850545696521/posts/FT34TYMsdB3
https://plus.google.com/109660538400604979429/posts/XWppNfTZdHj
https://plus.google.com/105310064585238601398/posts/cfgX7rdLBD1
https://plus.google.com/110597623395950036146/posts/ipGSsTpQ4aT
https://plus.google.com/118427042528990605638/posts/5sPxgFtPHAX
https://plus.google.com/104656427678877892756/posts/Sg864mM2Y6r
https://plus.google.com/101871285531510181517/posts/CNSM18Erpdd
https://plus.google.com/100310981520444018990/posts/3X25KPReCXW
https://plus.google.com/108724462472035498664/posts/gxdsxuJpK4X
https://plus.google.com/117378493405983803043/posts/j4uUGR8kWZV
https://plus.google.com/114830285889972425942/posts/5cAQS6ELnn1
https://plus.google.com/+JonSchull/posts/62cDMLq2QEq
https://plus.google.com/106013121062138989142/posts/j7WZRQf7J3J
https://plus.google.com/+JamesBricknell/posts/Gkadw2z8c1k
https://plus.google.com/115883187763668143023/posts/JShtU9968bT
https://plus.google.com/+JonSchull/posts/3ENHTic7LJh
https://plus.google.com/108529399150335915226/posts/h4dPXknPGHE
https://plus.google.com/+TroubleSturm/posts/ed7nX2nVKAg
https://plus.google.com/+AndreasBastian/posts/Qwi1jG3vbS4
https://plus.google.com/115810399850545696521/posts/4EZsRRMcyNQ
https://plus.google.com/+JonSchull/posts/ZH87ezv6HAN
https://plus.google.com/+JamesBricknell/posts/3JpPvzdTwBu
https://plus.google.com/109477653285830830921/posts/fuzrY7qKwLj
https://plus.google.com/109660538400604979429/posts/DivcjkfqQ4V
https://plus.google.com/114942323043624636591/posts/FYMh6QKC7Sc
https://plus.google.com/109477653285830830921/posts/KGPBtn9oXEB
https://plus.google.com/110904017529832649159/posts/KnvNybhN7nV
https://plus.google.com/114914546233044145534/posts/aKPkPXcu2CZ
https://plus.google.com/107675363062027744197/posts/eps5WWrcZwr
https://plus.google.com/105310064585238601398/posts/33fijQcf1Tr
https://plus.google.com/+GregElbourne/posts/ByvU3c5dPHN
https://plus.google.com/104405649593463541922/posts/Z2RAvW3HxnG
https://plus.google.com/104405649593463541922/posts/GB1iohAu6CF
https://plus.google.com/+JonSchull/posts/WMMLPcC7Eyi
https://plus.google.com/+TroubleSturm/posts/X95Nfo4w2Wa
https://plus.google.com/101692949483668347046/posts/e9cVo7skVbR
https://plus.google.com/104359171994284458545/posts/2LQ3MaDfq3w
https://plus.google.com/+JonSchull/posts/QYkWmPX5YH5
https://plus.google.com/101610752910793096968/posts/EDU6RS4GZix
https://plus.google.com/115879642407600357750/posts/Nn6QVUZEFv6
https://plus.google.com/110337357858766708212/posts/R4aqkAwo17f
https://plus.google.com/117579949973258773116/posts/S2uH6wXCPqF
https://plus.google.com/113986378154552069260/posts/XAc4AKUrdiH
https://plus.google.com/+JonSchull/posts/JESZF7Dikon
https://plus.google.com/+nickparker/posts/EBsbcj4YN4B
https://plus.google.com/+ChrisCraft184/posts/g1SiFgDhSac
https://plus.google.com/115883187763668143023/posts/1Dt8oi7M7EV
https://plus.google.com/+JonSchull/posts/Bex5FqudvFv
https://plus.google.com/109660538400604979429/posts/9siUsXN8o2h
https://plus.google.com/+JonSchull/posts/4EDJMUFTchT
https://plus.google.com/109660538400604979429/posts/Z5pBSG1m9n4
https://plus.google.com/107071647805183961662/posts/ARetjR35iRW
https://plus.google.com/101823439333955577616/posts/JQNQo75SQmW
https://plus.google.com/+JonSchull/posts/aeCDD7sDiou
https://plus.google.com/116087108417609891703/posts/5dEbHmDyax6
https://plus.google.com/105636905078262744686/posts/bGeSEysgTcE
https://plus.google.com/118427042528990605638/posts/VEkzjqHTWqL
https://plus.google.com/+JohnWong_gotwong/posts/26o8wymN7Hm
https://plus.google.com/+Thingscreators/posts/Z9SwyecNXFc
https://plus.google.com/110337357858766708212/posts/GV77y3CcW7f
https://plus.google.com/+SkipMeetze/posts/d7UNHyEGuxd
https://plus.google.com/103532773394113725547/posts/Ci5fNo4QuYF
https://plus.google.com/+JonSchull/posts/1mckC7Bo9Y9
https://plus.google.com/115810399850545696521/posts/HBo4hPH4CE5
https://plus.google.com/114050550513385102057/posts/1kRVe76LYAD
https://plus.google.com/104007369947498069485/posts/XjdCKZQb4KY
https://plus.google.com/104405649593463541922/posts/23RWbm9Thsv
https://plus.google.com/101778915483023229467/posts/VHfd9WdSQ8T
https://plus.google.com/+DanielDugan/posts/R7vt4pcd5ff
https://plus.google.com/106162796811521778880/posts/aJtgsKvhvvG
https://plus.google.com/106162796811521778880/posts/GBGCcFehR2E
https://plus.google.com/+TroubleSturm/posts/MRHdovt5QEa
https://plus.google.com/+JonSchull/posts/9gsAWGZ5UgD
https://plus.google.com/114942323043624636591/posts/B5WgJc3DHJW
https://plus.google.com/+robotbuilder/posts/StZxweeay25
https://plus.google.com/114312072120945469399/posts/UDycb41jAFW
https://plus.google.com/+JamesBricknell/posts/7FNi6V49y5J
https://plus.google.com/103015456434126891907/posts/BCigXvL4dYh
https://plus.google.com/+JamesBricknell/posts/e3sWdAaDcQN
https://plus.google.com/115810399850545696521/posts/aGY3jGGvq31
https://plus.google.com/+AndreasBastian/posts/1Jw8KFRcUFg
https://plus.google.com/115810399850545696521/posts/7ToY8sPvjLz
https://plus.google.com/107675363062027744197/posts/YELfMEr55mm
https://plus.google.com/+AndreasBastian/posts/enWXJqiqpV4
https://plus.google.com/+FricisPirtnieks/posts/dMh8sqDGDC2
https://plus.google.com/+JamesBricknell/posts/gn8ssbKYA88
https://plus.google.com/104656427678877892756/posts/LjCntuXHuWp
https://plus.google.com/+JonSchull/posts/2AaQzUamYit
https://plus.google.com/115810399850545696521/posts/GoXp5FoTZVJ
https://plus.google.com/106340253046887553993/posts/2tPDRc6cAYp
https://plus.google.com/+JamesBricknell/posts/TeNPfYvezxU
https://plus.google.com/+AndreasBastian/posts/a5PRUo67kYB
https://plus.google.com/+JonSchull/posts/5FmUczXof3t
https://plus.google.com/115810399850545696521/posts/EpK6KbL7gza
https://plus.google.com/+Multiversal/posts/4VcHWfEuENY
https://plus.google.com/110337357858766708212/posts/YdaiwQWJtGS
https://plus.google.com/116087108417609891703/posts/WxdkWohmq2w
https://plus.google.com/115216114608575937203/posts/54TBA5hPv9K
https://plus.google.com/114776997749135038771/posts/G2q8tBLjhrC
https://plus.google.com/112284958330487346949/posts/1LP4KRYwccp
https://plus.google.com/105534168599582502277/posts/9KM1k2oZZi8
https://plus.google.com/+JCDiamond/posts/bJWDSkYWhXH
https://plus.google.com/117070913375578895316/posts/56SjpzAWLtN
https://plus.google.com/+JonSchull/posts/4SuAFhaXzqZ
https://plus.google.com/110330574969859401805/posts/HEstCZ8knCG
https://plus.google.com/+JohnWong_gotwong/posts/J3zRmZPXJwx
https://plus.google.com/112614965190105584905/posts/aVaZaTZdyfN
https://plus.google.com/103532773394113725547/posts/5RuMhcBiYcV
https://plus.google.com/117378493405983803043/posts/XgGKRz7rY16
https://plus.google.com/113093660727749561910/posts/DTZuYJmUMx7
https://plus.google.com/110285371582612074476/posts/Zd17NHGbxy9
https://plus.google.com/109477653285830830921/posts/fSrdMmvDzvk
https://plus.google.com/110621474680030274149/posts/UKJCrnReLLk
https://plus.google.com/105636905078262744686/posts/5sFgejkWggr
https://plus.google.com/117579949973258773116/posts/SsDECTWb5ba
https://plus.google.com/107675363062027744197/posts/4VBSWxqKsQ7
https://plus.google.com/112924685807628863357/posts/NqHhNeamHDY
https://plus.google.com/112284958330487346949/posts/J5BvvbK6C19
https://plus.google.com/111743060855700480937/posts/GMW3Gmyj96L
https://plus.google.com/116855172174127270743/posts/UXctsFYVeum
https://plus.google.com/105755078764665912363/posts/fvhcjxr5J5m
https://plus.google.com/114942323043624636591/posts/YsHtqXYwwnk
https://plus.google.com/+JonSchull/posts/jfgaEJ5LXDo
https://plus.google.com/112064682252246971051/posts/8QUs4z7ZZQz
https://plus.google.com/+JonSchull/posts/1KSJC3kywRC
https://plus.google.com/+JamesBricknell/posts/2iSnK7CQPaZ
https://plus.google.com/104656427678877892756/posts/328cSoJHvFC
https://plus.google.com/108206013571513060610/posts/WD7PDWUEvpS
https://plus.google.com/110621474680030274149/posts/TXQmxqNbxuQ
https://plus.google.com/+TroubleSturm/posts/XqrNqDzHw4g
https://plus.google.com/100045186532166712061/posts/UTMAjmXm69q
https://plus.google.com/+AndreasBastian/posts/F3FkT7jggMP
https://plus.google.com/+UmarYakubu/posts/5kVSiQseLkt
https://plus.google.com/+SoniaVerdu/posts/ZDraJ31VgaC
https://plus.google.com/+JonSchull/posts/5h6kJbyrQW6
https://plus.google.com/114652561291712251182/posts/9QMWHRg5fvE
https://plus.google.com/117579949973258773116/posts/M4g6iNQVu3L
https://plus.google.com/110607375119839450523/posts/KmGDoQvqSNE
https://plus.google.com/+JonSchull/posts/XTSaXUgRyQM
https://plus.google.com/+JonSchull/posts/EjmnAjA54L3
https://plus.google.com/+JonSchull/posts/Wi6cJT8dqYL
https://plus.google.com/+JamesBricknell/posts/Dn76LMrc65Q
https://plus.google.com/103015456434126891907/posts/2obVnuSNxpU
https://plus.google.com/109477653285830830921/posts/BuEkVz7GF9A
https://plus.google.com/+JonSchull/posts/cAk4kC1kDfj
https://plus.google.com/101983482690669689599/posts/Hkiu5yME9vg
https://plus.google.com/111743060855700480937/posts/Qdv1bPQR1VY
https://plus.google.com/100059928993759897410/posts/4fHYGGKoNiq
https://plus.google.com/118396690658579896401/posts/7ckrX9E66fp
https://plus.google.com/104656427678877892756/posts/UHN6BTDMTEY
https://plus.google.com/110337357858766708212/posts/fvJ5r5QLFVs
https://plus.google.com/108381577407528401489/posts/87H2qEpmzQn
https://plus.google.com/103532773394113725547/posts/3KVLmjf3Y95
https://plus.google.com/+robotbuilder/posts/ALSeFfWwYUA
https://plus.google.com/110607375119839450523/posts/DWjKmvJifMC
https://plus.google.com/102222421296777702967/posts/bfUCmeTX7ra
https://plus.google.com/108175374059430781545/posts/bp2F4x4gQif
https://plus.google.com/112064682252246971051/posts/6eu3VMQD2eC
https://plus.google.com/+JamesBricknell/posts/Su59fkPkhWY
https://plus.google.com/+JonSchull/posts/4774CWdQ86s
https://plus.google.com/111472681857381751125/posts/DtTMCzHXQum
https://plus.google.com/115216114608575937203/posts/MvUT1rrUYDj
https://plus.google.com/+JCDiamond/posts/g6ctT46g9Hk
https://plus.google.com/100059928993759897410/posts/7TEnGN2thC8
https://plus.google.com/+JamesBricknell/posts/aT95tRpid2h
https://plus.google.com/101218655994792343753/posts/7yPee2Xr8tj
https://plus.google.com/+PeterBinkley5/posts/PYVy1oiXb9x
https://plus.google.com/+JohnWong_gotwong/posts/2EAWVUXtici
https://plus.google.com/+EWCHEEGUAN/posts/AunZvc1C5qn
https://plus.google.com/114776997749135038771/posts/XXrXh3S2bYw
https://plus.google.com/110607375119839450523/posts/KRoqfmcGAjz
https://plus.google.com/+EWCHEEGUAN/posts/EQsAxQvrvdZ
https://plus.google.com/109168109849379256288/posts/gR8GtntCcUj
https://plus.google.com/110268950407768545042/posts/hrSAwej5RNV
https://plus.google.com/+Multiversal/posts/DjxuTVN6vsQ
https://plus.google.com/+SkipMeetze/posts/BmMgY51MMug
https://plus.google.com/110925835110376377631/posts/eaNUqTbgvcT
https://plus.google.com/110337357858766708212/posts/fjuXYeaKwm1
https://plus.google.com/112064682252246971051/posts/CbUh7iUo4X5
https://plus.google.com/111743060855700480937/posts/Y7yhdrnT7f7
https://plus.google.com/100482170173343477043/posts/DPQvEfz4UxR
https://plus.google.com/115771983852198422886/posts/RBFRGZXDLTg
https://plus.google.com/+AndreasBastian/posts/angjR8k7JkX
https://plus.google.com/115810399850545696521/posts/Q5RuUZsCZSi
https://plus.google.com/105534168599582502277/posts/UDhXPKdKvPq
https://plus.google.com/+JonSchull/posts/68nvyPGs3LB
https://plus.google.com/+JonSchull/posts/R7D2EJTmPg1
https://plus.google.com/+UmarYakubu/posts/PPCED6mQWZY
https://plus.google.com/107675363062027744197/posts/CB2B7mWisqj
https://plus.google.com/103392739496811101573/posts/2RUE1dRQQXA
https://plus.google.com/115216114608575937203/posts/1AngoubdYNa
https://plus.google.com/109477653285830830921/posts/cypxTbuQdrn
https://plus.google.com/+PeterBinkley5/posts/UoBqJcyWdFa
https://plus.google.com/116087108417609891703/posts/bDov7trKpyW
https://plus.google.com/108069952106177381834/posts/Ko6iiPNSKHJ
https://plus.google.com/115526461115132396359/posts/WHzdBkjeRUH
https://plus.google.com/115049287566323746094/posts/hTjMPcEv9pj
https://plus.google.com/115271222992779243803/posts/QPosBMH66EL
https://plus.google.com/111743060855700480937/posts/bFRiXHiHZck
https://plus.google.com/102767159227783261000/posts/Rba37ndNgRW
https://plus.google.com/117051043052623039142/posts/4zcbVzcrM7W
https://plus.google.com/109477653285830830921/posts/hWQefKNuZxK
https://plus.google.com/114757928561553299109/posts/VkLQba8hvgu
https://plus.google.com/114050550513385102057/posts/5XdLDZ8MBsH
https://plus.google.com/110607375119839450523/posts/2LZo4txLjDV
https://plus.google.com/115810399850545696521/posts/VfEgVYouWiP
https://plus.google.com/+JamesBricknell/posts/B5TpuMxfsKu
https://plus.google.com/109477653285830830921/posts/MWPY12LNf3m
https://plus.google.com/111624658163780307206/posts/XJrE91Vz223
https://plus.google.com/109691755426990214115/posts/9dZkRwMuRmd
https://plus.google.com/103015456434126891907/posts/bKeXq8NEV5f
https://plus.google.com/115412562354217467527/posts/JYSM8eqdySu
https://plus.google.com/+JamesBricknell/posts/TX56HyD8sEk
https://plus.google.com/115216114608575937203/posts/hPwhjYxKS5N
https://plus.google.com/103532773394113725547/posts/Y7kqyVcSad3
https://plus.google.com/117579949973258773116/posts/PZ1yce6uesp
https://plus.google.com/+JamesBricknell/posts/GXkcKcxSKCT
https://plus.google.com/112292423265598345596/posts/N5ZC5ruMTEP
https://plus.google.com/102520450521424971656/posts/4Lv2K1ZfBpj
https://plus.google.com/+AndreasBastian/posts/36KWo5bYfDV
https://plus.google.com/111228746602989678854/posts/bUS9YvL8nHf
https://plus.google.com/111228746602989678854/posts/hSjUNExiipV
https://plus.google.com/+JohnWong_gotwong/posts/b7iHLimTcUf
https://plus.google.com/115810399850545696521/posts/Wj7u2d7do3u
https://plus.google.com/+PeterBinkley5/posts/KTWwQBAf1tx
https://plus.google.com/102060132993191727280/posts/QS7e1a2Crw4
https://plus.google.com/116771867589156586638/posts/gMfy1joqFRp
https://plus.google.com/112658476982779778712/posts/E4MKf8WTrpT
https://plus.google.com/114312072120945469399/posts/hQU9wDRJEq4
https://plus.google.com/+SkipMeetze/posts/HwPLtzatGZA
https://plus.google.com/105194569659834772439/posts/cfkebbFWT3m
https://plus.google.com/+SkipMeetze/posts/XdCV4fx2RFW
https://plus.google.com/101823439333955577616/posts/Ucm8cqQhyZm
https://plus.google.com/101823439333955577616/posts/1MGiCKFRmiK
https://plus.google.com/+JohnWong_gotwong/posts/dTfj4DA3nH9
https://plus.google.com/+JohnWong_gotwong/posts/Lc6muH3bSh6
https://plus.google.com/103892960789661552651/posts/5bRK4FhoQF9
https://plus.google.com/104656427678877892756/posts/SuGkG6rA43A
https://plus.google.com/110118735960368694411/posts/DNPBnrj5yue
https://plus.google.com/115191143865737095487/posts/jMvEAJKSsfB
https://plus.google.com/114489706916180722583/posts/9CnkSGSAhGv
https://plus.google.com/+JonSchull/posts/VhmCtE8bhat
https://plus.google.com/+JamesBricknell/posts/VpDh1JYSBLC
https://plus.google.com/106883307778157718279/posts/BXbjTwmKK7X
https://plus.google.com/107675363062027744197/posts/EW5tbEP4gJg
https://plus.google.com/102201201074540105639/posts/h9RehGsXwCd
https://plus.google.com/107212053771179617562/posts/PHCTsTAGoJT
https://plus.google.com/111228746602989678854/posts/e3HTTkz26QW
https://plus.google.com/+JasonClark/posts/3hcRSeCTnge
https://plus.google.com/+JonSchull/posts/Ldwwp3dwHmQ
https://plus.google.com/102580194639535590270/posts/hoeA3c5x355
https://plus.google.com/+AngelRolon/posts/NaWao5kNXGG
https://plus.google.com/+JCDiamond/posts/jJbcLk3c2iM
https://plus.google.com/102348101934877065986/posts/d3GdzuwtVKe
https://plus.google.com/+GabrielMedina23/posts/HpTBCzx6pSY
https://plus.google.com/+JamesBricknell/posts/HDpVqVFjfBx
https://plus.google.com/108069952106177381834/posts/T9Pifgn89Ag
https://plus.google.com/102316935873639480051/posts/f4EcYsUFaSu
https://plus.google.com/114050550513385102057/posts/Z1HQgmsSkvM
https://plus.google.com/105541894710060070456/posts/Px3YLJigxnw
https://plus.google.com/115810399850545696521/posts/GfrBgp13F3d
https://plus.google.com/+JamesBricknell/posts/CFzxseVvAFE
https://plus.google.com/101162443579911998560/posts/8XsxXH9G8bB
https://plus.google.com/110925835110376377631/posts/5m89MKXAZY9
https://plus.google.com/115810399850545696521/posts/ggkEh2qezzH
https://plus.google.com/104567835446555076023/posts/ck8ngg2MRef
https://plus.google.com/107675363062027744197/posts/Xh9hYtCrnWZ
https://plus.google.com/115810399850545696521/posts/4488RwDL4V4
https://plus.google.com/110337357858766708212/posts/SDhGT85q1GA
https://plus.google.com/105609425790951155145/posts/BDAz5LehJt1
https://plus.google.com/100315923383648336451/posts/a7WVyGpvSc6
https://plus.google.com/+kleemiller/posts/hW1yiqFJ8aZ
https://plus.google.com/+JohnWong_gotwong/posts/Tg4dhLRUhWu
https://plus.google.com/105267043528326154291/posts/fikycuFgesC
https://plus.google.com/+JamesBricknell/posts/jeeb9pwmUSf
https://plus.google.com/+PIPEAGUIRRES/posts/Le3rQo3CJuY
https://plus.google.com/105797909841140440265/posts/DLm9LUSFGBA
https://plus.google.com/115810399850545696521/posts/iZDfzRA9KeQ
https://plus.google.com/107675363062027744197/posts/8Wx341D6XvJ
https://plus.google.com/114050550513385102057/posts/KsU5cxL3fNG
https://plus.google.com/114914546233044145534/posts/6askkF6mWco
https://plus.google.com/101158197769948585158/posts/VpTNcpTuwBB
https://plus.google.com/+JohnWong_gotwong/posts/UE5JaEUXz3Q
https://plus.google.com/102528123306475142530/posts/XZ73K8Pw75X
https://plus.google.com/115810399850545696521/posts/cuwAJHj3ptg
https://plus.google.com/109168109849379256288/posts/AaFEmBUcio2
https://plus.google.com/115216114608575937203/posts/PZHdCx2HBkD
https://plus.google.com/+JCDiamond/posts/DVkNxA8Kuur
https://plus.google.com/115918124411817303526/posts/4AoMnkiN8Lx
https://plus.google.com/104405649593463541922/posts/6pqN9krWPnM
https://plus.google.com/102542187327154261669/posts/UA7GyCFPubS
https://plus.google.com/102201201074540105639/posts/DNwzfiAZ6bu
https://plus.google.com/116087108417609891703/posts/Ut2SRRJERcz
https://plus.google.com/116087108417609891703/posts/CpwjoibjaNx
https://plus.google.com/117126831150251443833/posts/7srR6cTxxYr
https://plus.google.com/117126831150251443833/posts/5imh2hVqbr5
https://plus.google.com/115810399850545696521/posts/84PYJJuBLnR
https://plus.google.com/104359171994284458545/posts/GuFwWLVaThL
https://plus.google.com/104468854269326650575/posts/4xuo5FWoRWn
https://plus.google.com/+JonSchull/posts/7JZsWK2EMmb
https://plus.google.com/110751439769718296176/posts/ftGfZ7bE5Nm
https://plus.google.com/+DrewMeyerBCMines/posts/SQK45pwSaiD
https://plus.google.com/106281894314438128883/posts/gvxMLBmvtEK
https://plus.google.com/+JonSchull/posts/6keqU3zvXiz
https://plus.google.com/118109588008025428145/posts/JVtHsNXfXVP
https://plus.google.com/104359171994284458545/posts/ZegrLhuUEym
https://plus.google.com/114942323043624636591/posts/YZiszpNJwzw
https://plus.google.com/+JonSchull/posts/fE8x5jd86kZ
https://plus.google.com/+JonSchull/posts/MhztSDhzAuF
https://plus.google.com/103358542757806128908/posts/V222HhPQQ6E
https://plus.google.com/+BodoHoenen/posts/UnigG1GhhCf
https://plus.google.com/113429270326471312185/posts/X2daV1bMQ7U
https://plus.google.com/109768266033402232643/posts/aN2na6firKE
https://plus.google.com/115810399850545696521/posts/aNUciEm99AN
https://plus.google.com/116177527871883301032/posts/KrDgLtc5B72
https://plus.google.com/+JonSchull/posts/6pRQQ5zCbh1
https://plus.google.com/102949249122884214306/posts/HpkBRFEmKUr
https://plus.google.com/101778915483023229467/posts/Cg5Vf5C814a
https://plus.google.com/109660538400604979429/posts/YJgkcd9JQ3Q
https://plus.google.com/109477653285830830921/posts/RFH8FDbaeqg
https://plus.google.com/109477653285830830921/posts/c3A4XSLHuft
https://plus.google.com/105767891268944338004/posts/dQBcD7ybb9W
https://plus.google.com/101922679306997675202/posts/RUByUqThDvT
https://plus.google.com/100855033541678294401/posts/NvjizSWcz9R
https://plus.google.com/115810399850545696521/posts/HWoB64bxA1m
https://plus.google.com/115810399850545696521/posts/YBwkNDUi6Mn
https://plus.google.com/115810399850545696521/posts/FY3Rcmx9yhs
https://plus.google.com/+FricisPirtnieks/posts/GSzZiuqX4L3
https://plus.google.com/100059928993759897410/posts/MQnMAWYruBn
https://plus.google.com/103383186601737835809/posts/8HCRHZH5TJm
https://plus.google.com/104405649593463541922/posts/YgdTzKE3T7E
https://plus.google.com/109660538400604979429/posts/eyrYfBEZ9Ca
https://plus.google.com/110607375119839450523/posts/41vQbyVk7s5
https://plus.google.com/114942323043624636591/posts/LrnRuCz3igo
https://plus.google.com/114942323043624636591/posts/XxNyztaBwLi
https://plus.google.com/109660538400604979429/posts/B7tdZR7m1jr
https://plus.google.com/109660538400604979429/posts/D6akG774ydm
https://plus.google.com/115810399850545696521/posts/B47FNnhmhRc
https://plus.google.com/110337357858766708212/posts/gBQ3XAizEft
https://plus.google.com/+AndreasBastian/posts/44ifGXSRpcg
https://plus.google.com/114150067685166238613/posts/CNxk8Nukfoh
https://plus.google.com/109768266033402232643/posts/BVxrw7QuZW5
https://plus.google.com/114150067685166238613/posts/BpboryLWbZN
https://plus.google.com/114942323043624636591/posts/FCbrPB3femz
https://plus.google.com/109477653285830830921/posts/GBAuPBpG882
https://plus.google.com/+DanielDugan/posts/CyzYENFzoqR
https://plus.google.com/114942323043624636591/posts/itjnrWL6oj8
https://plus.google.com/+CarltonDodd/posts/KTYCBUFM2GS
https://plus.google.com/104405649593463541922/posts/fdeHR14V4ni
https://plus.google.com/+JonSchull/posts/PQFxB4hkXrp
https://plus.google.com/106091651277142407946/posts/PFV4vdeznr2
https://plus.google.com/105541894710060070456/posts/Mu7RybvUvJ8
https://plus.google.com/+JonSchull/posts/VTe2v68FXu4
https://plus.google.com/108724462472035498664/posts/D6Hodw8SU23
https://plus.google.com/+JonSchull/posts/V61aZygpbCF
https://plus.google.com/+JonSchull/posts/Sqo8fnsG5Zh
https://plus.google.com/101823439333955577616/posts/ESSLtRCYSjp
https://plus.google.com/111228746602989678854/posts/HqTRJJtsn1q
https://plus.google.com/115254886637436748563/posts/FVYQVfbnz2y
https://plus.google.com/+JonSchull/posts/FdJf3qJ6Efz
https://plus.google.com/115254886637436748563/posts/FJg7DowKnJu
https://plus.google.com/106229069465821506802/posts/Q9dUb9Sjnby
https://plus.google.com/109477653285830830921/posts/QQN8AES9KSx
https://plus.google.com/109477653285830830921/posts/7rVEjcZwveT
https://plus.google.com/+JonSchull/posts/QQ6Uzrz8Rr1
https://plus.google.com/+FricisPirtnieks/posts/aqwo9KbJs2B
https://plus.google.com/+JohnThorpIreland/posts/PXWzNNbwVx3
https://plus.google.com/+JohnThorpIreland/posts/8Y1d7Edrseg
https://plus.google.com/115254886637436748563/posts/YdPYHuK4iKD
https://plus.google.com/103958488150135688449/posts/AEdHg2kg4z6
https://plus.google.com/106661119400621879867/posts/CVuRQEvdLnR
https://plus.google.com/+JonSchull/posts/WDeJJK5NxoH
https://plus.google.com/110607375119839450523/posts/WDxwYE6Sicx
https://plus.google.com/117605010879519445472/posts/2EAXBMAsz6a
https://plus.google.com/109477653285830830921/posts/FE4ZeHxT8Sb
https://plus.google.com/112730226345446644422/posts/ABq4z1WGFS1
https://plus.google.com/+JonSchull/posts/4JM9UL7S9Te
https://plus.google.com/115825383229212150920/posts/bv7Koo5M6qc
https://plus.google.com/109477653285830830921/posts/eM5rwZaGkEu
https://plus.google.com/107060261012350870707/posts/c1JEBSHAkkF
https://plus.google.com/+JonSchull/posts/iL1Yupib3QS
https://plus.google.com/105636905078262744686/posts/32YjVYsueTT
https://plus.google.com/109768266033402232643/posts/NX1R4U7DCDe
https://plus.google.com/110607375119839450523/posts/FahMkA8n7io
https://plus.google.com/+JamesBricknell/posts/N59ee3gvUoq
https://plus.google.com/+JonSchull/posts/G2m45VEdeJx
https://plus.google.com/109660538400604979429/posts/HgJLTxm7tqv
https://plus.google.com/109660538400604979429/posts/3EfPg28S3oW
https://plus.google.com/+BodoHoenen/posts/jW3JkAQA3bf
https://plus.google.com/110118735960368694411/posts/iYnnsThsKQZ
https://plus.google.com/101785874618857894110/posts/e8wT5NPmB3n
https://plus.google.com/104656427678877892756/posts/L5yHDPBVF9Z
https://plus.google.com/105797909841140440265/posts/LcSGAVYoFvE
https://plus.google.com/115810399850545696521/posts/7umrkFjcwrB
https://plus.google.com/+JonSchull/posts/gn5ryi2v1rk
https://plus.google.com/+JonSchull/posts/HyTpYQEUC8a
https://plus.google.com/108069952106177381834/posts/KR123DWrByY
https://plus.google.com/110337357858766708212/posts/VqY73eM4Fju
https://plus.google.com/117388096462688165052/posts/gpWf7UTiECx
https://plus.google.com/115810399850545696521/posts/ayQNsUS3EEe
https://plus.google.com/100275203952627967377/posts/eAUJezQve27
https://plus.google.com/+JoeCross98/posts/da1MiU6ZJup
https://plus.google.com/113756700090208575601/posts/Lrvz7oETdxQ
https://plus.google.com/101778915483023229467/posts/4gUjq8Xt3XC
https://plus.google.com/116959968824531986775/posts/E219AqdgFCf
https://plus.google.com/115810399850545696521/posts/VQMpR2BdSqo
https://plus.google.com/113939225867664629048/posts/RExG218bGYA
https://plus.google.com/117378493405983803043/posts/chxqwfABWUZ
https://plus.google.com/103015456434126891907/posts/L7qf1gH9Hjk
https://plus.google.com/109660538400604979429/posts/haMUYdcz5H1
https://plus.google.com/105500321495924551398/posts/KXWXS3ANmWz
https://plus.google.com/+JoeCross98/posts/eXaJemB43hL
https://plus.google.com/105636905078262744686/posts/ecDgjBojTSJ
https://plus.google.com/118427042528990605638/posts/fugYqfbjhBq
https://plus.google.com/100855033541678294401/posts/2wdyJqq7nCv
https://plus.google.com/110733203332377773030/posts/RCE9BWUrjJQ
https://plus.google.com/100424616371694410976/posts/iyTvdpTUtku
https://plus.google.com/103590293948519605757/posts/fVgXsng9TH6
https://plus.google.com/109477653285830830921/posts/ZL2Pge1ZyWV
https://plus.google.com/109660538400604979429/posts/R3Mzudt3WC2
https://plus.google.com/+ShuvamNayak/posts/c1zmnnTJUMb
https://plus.google.com/114993353557705083527/posts/b3XosN87XcV
https://plus.google.com/106362585429754054744/posts/P8v9J7JN4hj
https://plus.google.com/104689523678025537831/posts/5zMo5ds6XQJ
https://plus.google.com/106802456138612730148/posts/cV6SugeRm5Q
https://plus.google.com/114942323043624636591/posts/aLSytquFJBi
https://plus.google.com/117588470153242888386/posts/RQQsZg8N4PW
https://plus.google.com/106482317562371856912/posts/bQuF7BmYGKX
https://plus.google.com/102580194639535590270/posts/iAeaRTgtb5Y
https://plus.google.com/108586004408295689574/posts/enn1zZiHSxJ
https://plus.google.com/115810399850545696521/posts/L6n4pSgUCtw
https://plus.google.com/+JonSchull/posts/jSA1TWE2N5B
https://plus.google.com/+JonSchull/posts/JdDJetAi4S7
https://plus.google.com/+JonSchull/posts/FxpSywu1mxE
https://plus.google.com/101191065757598782259/posts/XxnnDP2WLjR
https://plus.google.com/+RicardoPereiradesigner/posts/i6GKWw4nwac
https://plus.google.com/104405649593463541922/posts/bgqj7qPnmfZ
https://plus.google.com/102148342701463058726/posts/GZLaiDxcBPc
https://plus.google.com/110925835110376377631/posts/ecLgJGAPfbA
https://plus.google.com/110337357858766708212/posts/49CSf5bk4Do
https://plus.google.com/+AaronWestbrook_awestbrook99/posts/dsnSuJRp4wt
https://plus.google.com/109660538400604979429/posts/FmfYhVqFBBF
https://plus.google.com/112234964586634602201/posts/fuBMqBhJtcm
https://plus.google.com/106324213307223921574/posts/aDamgf7FZZd
https://plus.google.com/+RicardoPereiradesigner/posts/c46XjLomNEU
https://plus.google.com/107264536404552807311/posts/g4rm9wrcj8s
https://plus.google.com/100855033541678294401/posts/2kSsT1Wwaak
https://plus.google.com/+JonSchull/posts/Ww8iqPCiDaK
https://plus.google.com/105725688307720472335/posts/UHqAnZG6X47
https://plus.google.com/110337357858766708212/posts/ag3hAAXCSeW
https://plus.google.com/116842532143511553148/posts/AaBvDHZm1XU
https://plus.google.com/114942323043624636591/posts/MWMzHDMke6T
https://plus.google.com/115810399850545696521/posts/CdPPwFwWtyq
https://plus.google.com/109477653285830830921/posts/SYxNaReCGLC
https://plus.google.com/+JonSchull/posts/W3tKtQtt8jR
https://plus.google.com/114927478597310484690/posts/a3wzMpbLDWK
https://plus.google.com/+JonSchull/posts/WA1CwbzffjF
https://plus.google.com/115002034088791508138/posts/MAEoJZbtR3G
https://plus.google.com/115810399850545696521/posts/27Cc7iS4xo5
https://plus.google.com/109477653285830830921/posts/gj1jyJZjb6Y
https://plus.google.com/+JonSchull/posts/AKw1FwwsJ34
https://plus.google.com/111650977983474044811/posts/ijKk3bY9x9o
https://plus.google.com/106211815324397579927/posts/5fiNgdv9otC
https://plus.google.com/111650977983474044811/posts/Ydts6kNSv53
https://plus.google.com/100690090172538986994/posts/gdoRdRT3UaY
https://plus.google.com/+AndreasBastian/posts/5qmuQpNYBiy
https://plus.google.com/111228746602989678854/posts/NiEqhi6dpGv
https://plus.google.com/101305079293976054123/posts/hixoqTncNWe
https://plus.google.com/115738720105143402504/posts/8r3nLQVzxUg
https://plus.google.com/104405649593463541922/posts/LLqdbzVRfhL
https://plus.google.com/103092678448418359979/posts/Y1ey2wN1kba
https://plus.google.com/113286994962700691179/posts/A6Tgtdz4Huw
https://plus.google.com/117484463178418933839/posts/jC5Hs5pCdi9
https://plus.google.com/116796501411448404106/posts/jJ5VEHLRou6
https://plus.google.com/101218655994792343753/posts/F94v5ogdHx8
https://plus.google.com/118396690658579896401/posts/6xPTuZf7WHr
https://plus.google.com/107675363062027744197/posts/A4tFmnjGs9y
https://plus.google.com/107979341256289026903/posts/bRP5q1L9Vdb
https://plus.google.com/116842532143511553148/posts/UwuRayRBZef
https://plus.google.com/105636905078262744686/posts/DmTcwvauREv
https://plus.google.com/115271222992779243803/posts/AK1z8ngXx4b
https://plus.google.com/104656427678877892756/posts/WJSbPWW2DQR
https://plus.google.com/106973720973864714557/posts/5Su1FKb8kq6
https://plus.google.com/113939225867664629048/posts/Uoy85XJYuhA
https://plus.google.com/105636905078262744686/posts/fNYhrRCnj2H
https://plus.google.com/105636905078262744686/posts/8e6WnFbYZAe
https://plus.google.com/114776997749135038771/posts/9wcGCgoDPjC
https://plus.google.com/+JonSchull/posts/ipquHtK4HfL
https://plus.google.com/113286994962700691179/posts/XMsuzmSB59y
https://plus.google.com/114942323043624636591/posts/agGtNE7guLN
https://plus.google.com/+JCDiamond/posts/DvBeVmt8wLD
https://plus.google.com/+JonSchull/posts/7gLngb6aSdZ
https://plus.google.com/111743060855700480937/posts/PTxENLtr2jf
https://plus.google.com/117411900912638672618/posts/14VEWxM8JCw
https://plus.google.com/112880985494726152886/posts/D1S4GQuHCch
https://plus.google.com/117579949973258773116/posts/CjyUkKaj7nm
https://plus.google.com/+JonSchull/posts/FEW8qoSPdRi
https://plus.google.com/100059928993759897410/posts/35rfPe1DfGy
https://plus.google.com/116563211396861486266/posts/BX54MVjcnLc
https://plus.google.com/+PeregrineHawthorn/posts/WDJSw832DzJ
https://plus.google.com/115810399850545696521/posts/SSPXnvRJ7VR
https://plus.google.com/100683828360180525821/posts/N6k81gLz5aY
https://plus.google.com/117356371233598884518/posts/MbkgfQgQaxu
https://plus.google.com/117378493405983803043/posts/CB4V3UwZDnv
https://plus.google.com/114914546233044145534/posts/f9R8bPRtxfH
https://plus.google.com/117579949973258773116/posts/df15zVFpAjA
https://plus.google.com/111682418600293178295/posts/9cNchhdDhg4
https://plus.google.com/111743060855700480937/posts/49wGrRcXTBV
https://plus.google.com/118427042528990605638/posts/ikGTtd7K8KZ
https://plus.google.com/104656427678877892756/posts/caw1Q9UZK6o
https://plus.google.com/+JonSchull/posts/W641NYSCWJz
https://plus.google.com/115810399850545696521/posts/arnXoK9SFzL
https://plus.google.com/117579949973258773116/posts/avR28saGjCR
https://plus.google.com/104405649593463541922/posts/LbCDM4q2KHV
https://plus.google.com/101910702039583067665/posts/Q7aLobSbYYq
https://plus.google.com/+JonSchull/posts/EqxAnW1TejP
https://plus.google.com/109691755426990214115/posts/K9R2GbjV9Ka
https://plus.google.com/105636905078262744686/posts/ZA3bmAxERaY
https://plus.google.com/115810399850545696521/posts/eB6xMC8LUtS
https://plus.google.com/110481275267356226023/posts/eG37L2wzPAD
https://plus.google.com/+JamesBricknell/posts/4DZ7MrSDHY8
https://plus.google.com/107071647805183961662/posts/TZF7iiWHBb7
https://plus.google.com/+JonSchull/posts/ALAQdvSw39W
https://plus.google.com/104359171994284458545/posts/GdwoQ2iBRc7
https://plus.google.com/+OlegGaltsev/posts/Ngx95jayziR
https://plus.google.com/+GregElbourne/posts/SMpoF5vCD7q
https://plus.google.com/+nickparker/posts/eJ16R1iA5AK
https://plus.google.com/104656427678877892756/posts/aQ6a7GkaVPJ
https://plus.google.com/+JonSchull/posts/3fDU6aoS3JZ
https://plus.google.com/117579949973258773116/posts/Gh9Wg4DY15a
https://plus.google.com/117348992149387982438/posts/8zpDxsVtrag
https://plus.google.com/118427042528990605638/posts/8HrXFXkBqN3
https://plus.google.com/+TroubleSturm/posts/LcZmG9kGT5o
https://plus.google.com/+JonSchull/posts/XjoWAxxzMvr
https://plus.google.com/+JonSchull/posts/6dTVKWxN6WC
https://plus.google.com/104359171994284458545/posts/S2uqc83HHrq
https://plus.google.com/104405649593463541922/posts/7y8G1iK4pVT
https://plus.google.com/111743060855700480937/posts/KLPfAL1cAP5
https://plus.google.com/+JonSchull/posts/5qBYB26D53s
https://plus.google.com/114942323043624636591/posts/9whByUffsaG
https://plus.google.com/102580194639535590270/posts/AxfYfn1LRjU
https://plus.google.com/+SteveGyrobotWood/posts/LL7j42ZzNGq
https://plus.google.com/114914546233044145534/posts/9ojo8W5UzCt
https://plus.google.com/118204826181863047780/posts/89xtFT6WpjN
https://plus.google.com/110337357858766708212/posts/7z94aBJ9JNV
https://plus.google.com/109660538400604979429/posts/TL3TwHaVr5j
https://plus.google.com/113986378154552069260/posts/cQb1PK3qDbM
https://plus.google.com/+JamesBricknell/posts/Rm5dgaCZGtF
https://plus.google.com/109971326708724403151/posts/SdCzM8H4x6V
https://plus.google.com/+AndreasBastian/posts/BUbgFyjThQS
https://plus.google.com/+JoeCross98/posts/YC4xVxjkxsf
https://plus.google.com/114489706916180722583/posts/DJMwvjnVVLj
https://plus.google.com/+JonSchull/posts/3y33JWwt4HG
https://plus.google.com/115810399850545696521/posts/XTNf7n5ftYn
https://plus.google.com/115191143865737095487/posts/6HnRe5uxJHW
https://plus.google.com/110481275267356226023/posts/g6LW8JPmaNY
https://plus.google.com/116855172174127270743/posts/g4xahoMe9j7
https://plus.google.com/+GregElbourne/posts/9wUbvaB12nD
https://plus.google.com/104656427678877892756/posts/G8wxpCpzGm9
https://plus.google.com/103015456434126891907/posts/aoYMG5mnAu8
https://plus.google.com/102580194639535590270/posts/Bb9YWRLTUKF
https://plus.google.com/112770095171663895598/posts/NxDqnM68vEf
https://plus.google.com/106973720973864714557/posts/Ns1gHpvcTpN
https://plus.google.com/116855172174127270743/posts/jdpiasLbX14
https://plus.google.com/111228746602989678854/posts/YWCDoySsJLq
https://plus.google.com/107675363062027744197/posts/WEk747BYh1i
https://plus.google.com/111163519064951962693/posts/CMLrMqaZb1W
https://plus.google.com/105636905078262744686/posts/1mo4dktrCJp
https://plus.google.com/105636905078262744686/posts/feXA8W3KVmh
https://plus.google.com/100972394080230870767/posts/C55sREgEPny
https://plus.google.com/115810399850545696521/posts/Yv9L7PKWzyq
https://plus.google.com/114776997749135038771/posts/8HSwXEPwVP3
https://plus.google.com/104405649593463541922/posts/PMSgZS4pJo3
https://plus.google.com/105185036858154522063/posts/HeNHUg9cAzo
https://plus.google.com/+JonSchull/posts/XHrhzY8hjgc
https://plus.google.com/109477653285830830921/posts/bcUM68ReMxx
https://plus.google.com/+JonSchull/posts/HvgYyaCdRKE
https://plus.google.com/115216114608575937203/posts/QbYbe3YwhVD
https://plus.google.com/110337357858766708212/posts/bjjaQQu5Wx9
https://plus.google.com/114757928561553299109/posts/AqPGybqaJ57
https://plus.google.com/114942323043624636591/posts/iXMTg5TH54u
https://plus.google.com/111467505746745760268/posts/bxCbDnjD3Dy
https://plus.google.com/+AndreasBastian/posts/J3Ay8bz4CQL
https://plus.google.com/109168109849379256288/posts/iq6hkScZ9We
https://plus.google.com/+JonSchull-ECF/posts/CjXFM62Yk9E
https://plus.google.com/104602015018902556732/posts/iruqNWUMsSv
https://plus.google.com/106091651277142407946/posts/fo9hgkLR11i
https://plus.google.com/116177527871883301032/posts/4dwyA4dBwAC
https://plus.google.com/115216114608575937203/posts/4Yq3pqF7tRE
https://plus.google.com/115879642407600357750/posts/6hrBkex6bB5
https://plus.google.com/118427042528990605638/posts/PAuRYvAbuTR
https://plus.google.com/117579949973258773116/posts/5DvoJYtcTKW
https://plus.google.com/115810399850545696521/posts/dgVU36AzC2A
https://plus.google.com/+JoeCross98/posts/J4pFTUGKYUZ
https://plus.google.com/101003861483698341879/posts/PeQ8f18tbVJ
https://plus.google.com/+AndreasBastian/posts/51Td4MkRaYd
https://plus.google.com/+AndreasBastian/posts/WhBzed1a4Kf
https://plus.google.com/117579949973258773116/posts/9KqQ7Tao88V
https://plus.google.com/115810399850545696521/posts/cm9BSWPNmE1
https://plus.google.com/103532773394113725547/posts/hz5AtVoK2XZ
https://plus.google.com/117094616864857722524/posts/T3rLgMhANVV
https://plus.google.com/+JoeCross98/posts/Bo28jDdHFiq
https://plus.google.com/115830177420200748379/posts/2m4ZthDW2UR
https://plus.google.com/103015456434126891907/posts/X9BexXbFacT
https://plus.google.com/105636905078262744686/posts/F3VWuccqd1y
https://plus.google.com/+JoeCross98/posts/3b3Cb2jMn4r
https://plus.google.com/109768266033402232643/posts/Zr1UnqdNT5y
https://plus.google.com/112880985494726152886/posts/Vn9S1Rfd8Bt
https://plus.google.com/+JonSchull/posts/h3ECvr2HwD2
https://plus.google.com/115810399850545696521/posts/5GUsGD6xp92
https://plus.google.com/111163519064951962693/posts/XNfowjnoYKD
https://plus.google.com/102580194639535590270/posts/YYKSr7V3aQV
https://plus.google.com/+JonSchull/posts/fPsKC4mU9UV
https://plus.google.com/115810399850545696521/posts/DwNFBmbJTS7
https://plus.google.com/111228746602989678854/posts/EKFmWMgTHAj
https://plus.google.com/110285371582612074476/posts/NsqrsexXAt8
https://plus.google.com/114942323043624636591/posts/2wMv89SjbUe
https://plus.google.com/109477653285830830921/posts/NpqWaCSRnEK
https://plus.google.com/105636905078262744686/posts/2DqNsfFzFFX
https://plus.google.com/110285371582612074476/posts/gQ1VLjBVoYc
https://plus.google.com/113334593589414454716/posts/GLqTojf5MRJ
https://plus.google.com/111228746602989678854/posts/ePnh7TZiLkD
https://plus.google.com/+ArtieMoskowitz/posts/6HyV7vFQJLR
https://plus.google.com/115810399850545696521/posts/JqkLcxHA5US
https://plus.google.com/111163519064951962693/posts/6khxWeLp9RH
https://plus.google.com/106091651277142407946/posts/1YYx3rfhWk5
https://plus.google.com/+AndreasBastian/posts/dgiLbHsAu7e
https://plus.google.com/112064682252246971051/posts/HgAnH9ucagd
https://plus.google.com/116087108417609891703/posts/RQ7rPbHqZn2
https://plus.google.com/102558589428711423597/posts/fNRBbQ5Fv4y
https://plus.google.com/115810399850545696521/posts/8cjyym9DE5U
https://plus.google.com/104656427678877892756/posts/538qzHQEfgE
https://plus.google.com/102201201074540105639/posts/XvEF2cqsYZg
https://plus.google.com/114078166022847243386/posts/Rj3y9EfGEbQ
https://plus.google.com/104209761672722969176/posts/RaQyt1C6LhT
https://plus.google.com/115488955884389037997/posts/7iNRvsL5B2x
https://plus.google.com/+AndreasBastian/posts/SSfdDRToar3
https://plus.google.com/114312072120945469399/posts/8K6yTyHcifR
https://plus.google.com/109477653285830830921/posts/aRNQYH47mvs
https://plus.google.com/105185036858154522063/posts/iVQoJ3URzs9
https://plus.google.com/114536168817077745278/posts/dA4DHX6bnfq
https://plus.google.com/117579949973258773116/posts/GjiNNjWigvQ
https://plus.google.com/104656427678877892756/posts/3do4J3HTje8
https://plus.google.com/+JonSchull/posts/dpoAcUyeE5S
https://plus.google.com/+JonSchull/posts/6EWwNNGm6tq
https://plus.google.com/+IrfanMohamedZaid/posts/Z3pe3qWiS8N
https://plus.google.com/115810399850545696521/posts/jBc6epaK68X
https://plus.google.com/108175374059430781545/posts/LEJhLSzUWGE
https://plus.google.com/115049287566323746094/posts/ESBA4QzK62Z
https://plus.google.com/115049287566323746094/posts/YNBsLbzuPaP
https://plus.google.com/+JonSchull/posts/QN4qNixLGxa
https://plus.google.com/104141800377415514007/posts/7FYuBeBH5sK
https://plus.google.com/107264536404552807311/posts/WPBUNsQy37q
https://plus.google.com/+JonSchull/posts/DWn3UFisUpG
https://plus.google.com/101983482690669689599/posts/YTyxByrUybS
https://plus.google.com/+MatthewSuter/posts/YTEFdJvyFGm
https://plus.google.com/106243063622281693778/posts/YaUxNKfaw3s
https://plus.google.com/+JamesBricknell/posts/ZXMFaP1zL16
https://plus.google.com/+KurryCach%C3%A9/posts/DAT4rjMkJ8R
https://plus.google.com/110607375119839450523/posts/EYVeFxvrUDG
https://plus.google.com/+JamesBricknell/posts/QxP3Y9Xpcws
https://plus.google.com/115216114608575937203/posts/GszeCvZNoEx
https://plus.google.com/108175374059430781545/posts/KR7C1K8uLnz
https://plus.google.com/105962224231798873058/posts/LmXCX9W9yoy
https://plus.google.com/107264536404552807311/posts/7veHz9BXfWp
https://plus.google.com/+FricisPirtnieks/posts/1e1S4AbfXvB
https://plus.google.com/+JamesBricknell/posts/hW3sow6i2rX
https://plus.google.com/101778915483023229467/posts/Bs3Gk8NWL1h
https://plus.google.com/111472681857381751125/posts/TLCEfWFT9y8
https://plus.google.com/109477653285830830921/posts/axxvNzNJN5u
https://plus.google.com/112534660846792881231/posts/DfwLZ3ywpkj
https://plus.google.com/100059928993759897410/posts/FnfqaQMVgkb
https://plus.google.com/115810399850545696521/posts/AHoJRbYhASN
https://plus.google.com/+CameronNaramore/posts/Q5aW5Evm3zK
https://plus.google.com/118396690658579896401/posts/GiiB5QbwBvW
https://plus.google.com/+AndreasBastian/posts/cRqu7934U2L
https://plus.google.com/117051043052623039142/posts/iyQAH4eyJPp
https://plus.google.com/+JohnWong_gotwong/posts/Mddv4MsM1PA
https://plus.google.com/110607375119839450523/posts/LmfYaVr63b5
https://plus.google.com/110607375119839450523/posts/2EoN67oBDVH
https://plus.google.com/105267043528326154291/posts/DAvyMdLX4Fj
https://plus.google.com/115488955884389037997/posts/dw8EHr9omjx
https://plus.google.com/116549307820641434436/posts/XFmLCYAXXMY
https://plus.google.com/102580194639535590270/posts/3xCNEUr1Br9
https://plus.google.com/107003125495785205455/posts/HheminyA6MZ
https://plus.google.com/101218655994792343753/posts/CZwMba7SgZb
https://plus.google.com/115810399850545696521/posts/BdgVxGCwWh6
https://plus.google.com/117051043052623039142/posts/B5ceuUvpQVH
https://plus.google.com/115216114608575937203/posts/PwrJL54iYzC
https://plus.google.com/110607375119839450523/posts/CEPRUNzAFrA
https://plus.google.com/104734521641274709749/posts/XmHoi4yYwv6
https://plus.google.com/+DanielDugan/posts/S1WENvF626P
https://plus.google.com/111906867411044252122/posts/LBL5qFGC4jb
https://plus.google.com/+JonSchull/posts/h1fn5yxGDk5
https://plus.google.com/110607375119839450523/posts/8Hdg5sX6XLs
https://plus.google.com/+FricisPirtnieks/posts/T5BVDqEuXHq
https://plus.google.com/110337357858766708212/posts/2WMdVWtMwcF
https://plus.google.com/+AngelRolon/posts/DJaGZPamuzH
https://plus.google.com/118441099906114076976/posts/K3q2hZi3bmN
https://plus.google.com/110783321730730684823/posts/dVeVZHGeeNq
https://plus.google.com/+JohnWong_gotwong/posts/ACoE4sn2Tfm
https://plus.google.com/101692949483668347046/posts/ZaMwE1drVYK
https://plus.google.com/115216114608575937203/posts/SBVFzg8qPo4
https://plus.google.com/+TroubleSturm/posts/b8mduNLFYjs
https://plus.google.com/+JonSchull/posts/YJgNQ6M1Sgw
https://plus.google.com/114715502611751110270/posts/Jj3TqoCH3Kp
https://plus.google.com/+AshrafulNoyan/posts/Y73irACSAKJ
https://plus.google.com/108069952106177381834/posts/UknUvWRmexk
https://plus.google.com/110925835110376377631/posts/QfmZPzduSjd
https://plus.google.com/116123064339462851454/posts/JKrzhfxSRiL
https://plus.google.com/115101023061611568017/posts/GCMPd5dU7cJ
https://plus.google.com/115271222992779243803/posts/h8uKzrvW6T8
https://plus.google.com/103015456434126891907/posts/iB1q36QVp6T
https://plus.google.com/115810399850545696521/posts/gye5aeNN2d6
https://plus.google.com/115191143865737095487/posts/ZKTR12UB3AN
https://plus.google.com/112212967507104769641/posts/QLgmN5o6ruY
https://plus.google.com/102541813957759062597/posts/FamuMtVV4Bd
https://plus.google.com/117579949973258773116/posts/MNQyMu8adYU
https://plus.google.com/118131918799303097532/posts/7enwbV28Nf2
https://plus.google.com/115216114608575937203/posts/daBFhPcjP5E
https://plus.google.com/107675363062027744197/posts/A1ArZZAHhcS
https://plus.google.com/105119566243860670229/posts/bPRExDKxrZQ
https://plus.google.com/115576960249280570282/posts/DNPH6UbqmR9
https://plus.google.com/114757928561553299109/posts/SfisxuyTLiG
https://plus.google.com/117051043052623039142/posts/cdHGiN2chRC
https://plus.google.com/109691755426990214115/posts/epouYmAjkzx
https://plus.google.com/115412562354217467527/posts/fasFCNEgSBp
https://plus.google.com/+JonSchull/posts/6W38eezQdzG
https://plus.google.com/115810399850545696521/posts/AhWrh5W91Ja
https://plus.google.com/+JamesBricknell/posts/aoiYbkr98xs
https://plus.google.com/100045186532166712061/posts/JSuuUsanidy
https://plus.google.com/115412562354217467527/posts/VqGGPs7JdDM
https://plus.google.com/102703854051050458502/posts/62o2F2n7fcp
https://plus.google.com/+JCDiamond/posts/1L7DJXL2BtD
https://plus.google.com/115216114608575937203/posts/MQZKsWHrRBu
https://plus.google.com/114757928561553299109/posts/T31tAuV5wew
https://plus.google.com/105173431686442752885/posts/AfHXAJs59Hg
https://plus.google.com/+JohnWong_gotwong/posts/34NZMDpWknn
https://plus.google.com/+JonSchull/posts/LKGexsikB6E
https://plus.google.com/104656427678877892756/posts/GTLVZutRS1F
https://plus.google.com/100336036036659745302/posts/UKkyw2znQZ8
https://plus.google.com/102528123306475142530/posts/hQmP4TGYviY
https://plus.google.com/110337357858766708212/posts/KTi2oRLUtny
https://plus.google.com/105194569659834772439/posts/8XEWRPLp5PY
https://plus.google.com/117601290794546177570/posts/NMLjuStgeM2
https://plus.google.com/117601290794546177570/posts/8j3aQ6kHLfx
https://plus.google.com/117851939980178576006/posts/NdxQTUwnScT
https://plus.google.com/+JamesBricknell/posts/CThJKfhLHGv
https://plus.google.com/105267043528326154291/posts/NpJVzSz2Jxd
https://plus.google.com/108069952106177381834/posts/2x858WPCnAp
https://plus.google.com/101823439333955577616/posts/ADFeaDccnzd
https://plus.google.com/117579949973258773116/posts/dniGkWnnbzY
https://plus.google.com/102580194639535590270/posts/VAKRTRYuBiC
https://plus.google.com/109691755426990214115/posts/7CE86E5AMMo
https://plus.google.com/+JohnWong_gotwong/posts/iWcG7rMT1Ww
https://plus.google.com/107675363062027744197/posts/AeRkHCYwJgt
https://plus.google.com/+JonSchull/posts/Ri9GCpYfw7w
https://plus.google.com/+AngelRolon/posts/JdCa3sPVJYj
https://plus.google.com/116771867589156586638/posts/DYhS7MaYLhR
https://plus.google.com/+DanielDugan/posts/P7Weg7SVD4t
https://plus.google.com/+JonSchull/posts/aLyR526RHXa
https://plus.google.com/108069952106177381834/posts/ZqBRQxA1Ttb
https://plus.google.com/107795165503436036530/posts/1ggiDUik5Cg
https://plus.google.com/109971326708724403151/posts/Pc89jHdQHTm
https://plus.google.com/+JohnWong_gotwong/posts/bvi4LMJMhgX
https://plus.google.com/116087108417609891703/posts/8qKMB4EwtNU
https://plus.google.com/115216114608575937203/posts/dm7ZWx2inpR
https://plus.google.com/103532773394113725547/posts/jP2nquQjte1
https://plus.google.com/108069952106177381834/posts/fBVTrb4tPe2
https://plus.google.com/117051043052623039142/posts/7ENGKHNVjot
https://plus.google.com/+JCDiamond/posts/8RxCtb5mkfL
https://plus.google.com/108069952106177381834/posts/gsuEyqTpSFu
https://plus.google.com/109691755426990214115/posts/7oyRaa81Yb3
https://plus.google.com/115810399850545696521/posts/C1f1267ZwpA
https://plus.google.com/101162443579911998560/posts/2e4qQgKZ116
https://plus.google.com/114947526475557272510/posts/FMM1RRLK4rz
https://plus.google.com/112668661043210342674/posts/GLs1VMkavqC
https://plus.google.com/+JamesBricknell/posts/55uPoVjfKhQ
https://plus.google.com/115445064494283776524/posts/Jp57J9Gzr7w
https://plus.google.com/+TroubleSturm/posts/Qg4TPRS3Cj1
https://plus.google.com/115810399850545696521/posts/Uy5xGstNXH6
https://plus.google.com/111228746602989678854/posts/jAiMycyux2S
https://plus.google.com/109509567621611567692/posts/VurGipHEhXZ
https://plus.google.com/115650206291644923175/posts/6GLjYyfQ7Hy
https://plus.google.com/111524001117642685770/posts/heWAEE9v9cj
https://plus.google.com/+JamesBricknell/posts/c7yyppUNznQ
https://plus.google.com/105267043528326154291/posts/HyYKyAXyjun
https://plus.google.com/+GuizImpressionHumaine/posts/PGUyZFcKeip
https://plus.google.com/105797909841140440265/posts/8pxbdYDX5UZ
https://plus.google.com/101910702039583067665/posts/EvWsmoZRKsu
https://plus.google.com/+JohnWong_gotwong/posts/DiDb3CHZ8UP
https://plus.google.com/116556312559785397903/posts/jQwnbkeBhni
https://plus.google.com/+JamesBricknell/posts/Q8qgutt3T28
https://plus.google.com/115216114608575937203/posts/Bd33wWJRGHa
https://plus.google.com/115810399850545696521/posts/CGFLxdMK7Mm
https://plus.google.com/113787652332949210779/posts/fnZPvmQSwWC
https://plus.google.com/112668661043210342674/posts/9V8VcuPMSk4
https://plus.google.com/109683129225502494874/posts/duEKtifUPhg
https://plus.google.com/+robotbuilder/posts/diZznY7WMmo
https://plus.google.com/115810399850545696521/posts/cWadhiprXDd
https://plus.google.com/107264536404552807311/posts/HxzQKyBFsAA
https://plus.google.com/111904831194527760949/posts/AzuQqdfHfny
https://plus.google.com/102580194639535590270/posts/CQdQhXEvrBQ
https://plus.google.com/+KevinJarrett/posts/BxhDL4FDuxR
https://plus.google.com/+JamesBricknell/posts/F5gAGguC6YW
https://plus.google.com/115810399850545696521/posts/CyJ2xaTZPgr
https://plus.google.com/+JCDiamond/posts/hNzt1ZGd7Zr
https://plus.google.com/117126831150251443833/posts/MtsivD5eBu3
https://plus.google.com/+JonSchull/posts/6vZHk4R5kJN
