https://plus.google.com/+JonSchull/posts/ZMZCRQUPcw8
https://plus.google.com/+JonSchull/posts/f8E1zAHiXKL
https://plus.google.com/104405649593463541922/posts/Jd75QWPnUyX
https://plus.google.com/116177527871883301032/posts/bnVCj1qfiza
https://plus.google.com/117378493405983803043/posts/gfUV2uN29y2
https://plus.google.com/117378493405983803043/posts/34Sp3HjwaVP
https://plus.google.com/110349802375674603796/posts/9ms24tA1b31
https://plus.google.com/101778915483023229467/posts/LSdDUfPL4hX
https://plus.google.com/+JonSchull/posts/SZDAsommGTN
https://plus.google.com/114748769235444656292/posts/jQjVhCt5UZ9
https://plus.google.com/104359171994284458545/posts/AeiRca94j7h
https://plus.google.com/117579949973258773116/posts/RC13iTzKHsM
https://plus.google.com/117388096462688165052/posts/M3LZxGW388S
https://plus.google.com/+MohamedAbuelhagag/posts/MhzLCP7cf2E
https://plus.google.com/116630170302055169893/posts/8CJM71gj2wL
https://plus.google.com/+Myotriton/posts/hsyYJyu5Yr3
https://plus.google.com/111743060855700480937/posts/CZgyXkbCzXF
https://plus.google.com/109768266033402232643/posts/6tRRg9E3Zbc
https://plus.google.com/117579949973258773116/posts/MJitKWa1JcS
https://plus.google.com/+JonSchull/posts/4udEKt3ZteJ
https://plus.google.com/115810399850545696521/posts/GoU7J4k836N
https://plus.google.com/101778915483023229467/posts/KxAU7YQtvRk
https://plus.google.com/101778915483023229467/posts/6DRKzfnvTLj
https://plus.google.com/116402575791054442665/posts/Was4jtxmFpW
https://plus.google.com/106091651277142407946/posts/JfSsuXsEeku
https://plus.google.com/105767891268944338004/posts/iRiShS6VZRM
https://plus.google.com/+JoeCross98/posts/LefsoXJhwa7
https://plus.google.com/115580446896687100601/posts/gn1M1gyZiM3
https://plus.google.com/116018279380253227328/posts/iHHDLNuBPmf
https://plus.google.com/117094616864857722524/posts/V6fqudHZhkj
https://plus.google.com/115254886637436748563/posts/GPQqCHyBhGw
https://plus.google.com/115810399850545696521/posts/frKHTznnMJh
https://plus.google.com/115771983852198422886/posts/2jpHdwMTvvm
https://plus.google.com/115049287566323746094/posts/TZSqineqPrf
https://plus.google.com/111415364612889910977/posts/ZCJjrLGDdMS
https://plus.google.com/104405649593463541922/posts/LPiDUAktaWU
https://plus.google.com/100681542310152396552/posts/3SGJdQnzR4E
https://plus.google.com/+JoeCross98/posts/ZrXtSbSQbyg
https://plus.google.com/106883307778157718279/posts/jYkMX354S5Y
https://plus.google.com/109660538400604979429/posts/2BqAfbv95Yc
https://plus.google.com/+JonSchull/posts/b7X2RR96xjE
https://plus.google.com/105636905078262744686/posts/SLZfMR7844K
https://plus.google.com/+ArtieMoskowitz/posts/g8MaQrvWrZu
https://plus.google.com/+JoeCross98/posts/DxcAfsdte9y
https://plus.google.com/+JonSchull/posts/ASkyezPbQG5
https://plus.google.com/115254886637436748563/posts/LFiX1p3cfBx
https://plus.google.com/114150067685166238613/posts/FgmM5HBKJV4
https://plus.google.com/+JonSchull/posts/cSo8iu9ZJhp
https://plus.google.com/117378493405983803043/posts/9rrCReUdgb3
https://plus.google.com/102949249122884214306/posts/3oCePCBoiFk
https://plus.google.com/+JonSchull/posts/LDb2BRtxxdL
https://plus.google.com/+JonSchull/posts/7haUMvFCr4o
https://plus.google.com/104405649593463541922/posts/SwEMN3XLchL
https://plus.google.com/+LairdPopkin/posts/i9CkK61vUku
https://plus.google.com/+Myotriton/posts/25eyNjKfeCK
https://plus.google.com/110337357858766708212/posts/dTmf59TedUM
https://plus.google.com/+JonSchull/posts/5i7CMHfMWRV
https://plus.google.com/+JonSchull/posts/Tu5qWB3NUhm
https://plus.google.com/+JonSchull/posts/PnqFT5DBemj
https://plus.google.com/+JonSchull/posts/WYHV3NnxZQh
https://plus.google.com/114927478597310484690/posts/8T2VwBrDghF
https://plus.google.com/+JamesBricknell/posts/UdJh4uQ5NEw
https://plus.google.com/+JoeCross98/posts/GNuG8qriars
https://plus.google.com/+JonSchull/posts/4hHoSxnYE1j
https://plus.google.com/111743060855700480937/posts/du5vj2STYPg
https://plus.google.com/109477653285830830921/posts/2TdevUqQ85u
https://plus.google.com/+JonSchull/posts/MGo9UZAJ6yy
https://plus.google.com/+robotbuilder/posts/EthrkyrXAXv
https://plus.google.com/+JohnThorpIreland/posts/RFpBxNXojRj
https://plus.google.com/114461303363758402284/posts/9Y1axCNsnqJ
https://plus.google.com/114942323043624636591/posts/1HFMPREZxZb
https://plus.google.com/+JonSchull/posts/Kmcr829Pdyk
https://plus.google.com/115254886637436748563/posts/Qij8P632CvB
https://plus.google.com/+JoeCross98/posts/TssXPiWhSeS
https://plus.google.com/110625189525523614317/posts/AcbgeczcyDS
https://plus.google.com/+TroubleSturm/posts/F8C1GGCg9YD
https://plus.google.com/116979887276298088529/posts/YXJ3msKDnXc
https://plus.google.com/115254886637436748563/posts/UZNsDpXLfNS
https://plus.google.com/104405649593463541922/posts/28KfiRXbd8r
https://plus.google.com/118427042528990605638/posts/Kyi7nEij3wV
https://plus.google.com/116443786300430688146/posts/ZTLWFrByGsx
https://plus.google.com/115254886637436748563/posts/JkweTEb9eWi
https://plus.google.com/115771983852198422886/posts/WyPSVE3iCmf
https://plus.google.com/114914546233044145534/posts/2sX8A1Qo4An
https://plus.google.com/+GabrielMedina23/posts/ZoB2mJjskix
https://plus.google.com/110607375119839450523/posts/M41dbE7bMQ4
https://plus.google.com/114807589674243963172/posts/ZXFSywdLrrV
https://plus.google.com/+JonSchull/posts/95eNV6tpDow
https://plus.google.com/117348992149387982438/posts/NaWZ6bpDdAk
https://plus.google.com/117269268875716140855/posts/WVVKtoGJ7vM
https://plus.google.com/110337357858766708212/posts/UrDgPQY2dbK
https://plus.google.com/109660538400604979429/posts/jF4HKW5fqFk
https://plus.google.com/+JonSchull/posts/CkQ9Quq6xyg
https://plus.google.com/105797909841140440265/posts/Lv6W9RgpfMm
https://plus.google.com/114942323043624636591/posts/Tdsw2g8f8EK
https://plus.google.com/114150067685166238613/posts/JDtQ8zLNUeE
https://plus.google.com/+LigayaRobberts/posts/5cf3rAXPCk1
https://plus.google.com/108069952106177381834/posts/41Qb6inFHwX
https://plus.google.com/+JonSchull/posts/RN52CRdRs4h
https://plus.google.com/+JonSchull/posts/fGLRuXu6yh7
https://plus.google.com/105816562805889414619/posts/gUjHozfxn4k
https://plus.google.com/+JoeCross98/posts/3gyNuC72hVh
https://plus.google.com/115810399850545696521/posts/M2VQD5WUbxv
https://plus.google.com/101492559586551597270/posts/NkjWrHLjL5Q
https://plus.google.com/+JosephFairleyENABLESIENA/posts/GTZqUWTQakQ
https://plus.google.com/115810399850545696521/posts/VLsLR1waUuh
https://plus.google.com/114150067685166238613/posts/gKGKmRXiBzN
https://plus.google.com/105797909841140440265/posts/Tfi9EcpFB95
https://plus.google.com/118109588008025428145/posts/NSrMY562gei
https://plus.google.com/110597623395950036146/posts/ZX1S5x6J2HW
https://plus.google.com/117712824076122402529/posts/W5ZZ2x1Z795
https://plus.google.com/105500321495924551398/posts/d6xYGMETu9h
https://plus.google.com/+JamesBricknell/posts/gTvzMW6RDo3
https://plus.google.com/103590293948519605757/posts/3PzYazeNHTF
https://plus.google.com/101910702039583067665/posts/i2Yd2iqw4ws
https://plus.google.com/+ArtieMoskowitz/posts/f5xaS5LxnPG
https://plus.google.com/116842532143511553148/posts/GQjAwZFRVG6
https://plus.google.com/+JonSchull/posts/ZTz5hMrc95R
https://plus.google.com/116782776770548682354/posts/Y2ECqZGaQ1h
https://plus.google.com/+LukeJohnston_Google/posts/2k9YaMDJUNi
https://plus.google.com/109660538400604979429/posts/TrkRihqGQmF
https://plus.google.com/+GordChristmas/posts/iARkz3AxdYV
https://plus.google.com/115191143865737095487/posts/5spDWprwyHH
https://plus.google.com/+JohnThorpIreland/posts/hfat4m1HmGy
https://plus.google.com/105680394090836293743/posts/8euLwKRyYnF
https://plus.google.com/101823439333955577616/posts/AGw4j8T3E3A
https://plus.google.com/+MohamedAbuelhagag/posts/DvtusqTfuB9
https://plus.google.com/109660538400604979429/posts/V8iSFtBbXyp
https://plus.google.com/103590293948519605757/posts/VwWqNPyCgSX
https://plus.google.com/106091651277142407946/posts/6FbfvMJQvby
https://plus.google.com/+MohamedAbuelhagag/posts/UvmU37XbPvr
https://plus.google.com/+JonSchull/posts/Mn7k61HyWfn
https://plus.google.com/+JonSchull/posts/S4ea6MXCgZD
https://plus.google.com/+JonSchull/posts/b5Ceg7kQdPB
https://plus.google.com/+JonSchull/posts/PUcgJNdKoJc
https://plus.google.com/+JonSchull/posts/M1v58yQGU42
https://plus.google.com/104405649593463541922/posts/ThaCjwGqMB4
https://plus.google.com/107776083591977728926/posts/C9VtdL4XmUt
https://plus.google.com/104359171994284458545/posts/GuFwWLVaThL
https://plus.google.com/104468854269326650575/posts/4xuo5FWoRWn
https://plus.google.com/+JonSchull/posts/7JZsWK2EMmb
https://plus.google.com/110751439769718296176/posts/ftGfZ7bE5Nm
https://plus.google.com/+DrewMeyerBCMines/posts/SQK45pwSaiD
https://plus.google.com/106281894314438128883/posts/gvxMLBmvtEK
https://plus.google.com/+JonSchull/posts/6keqU3zvXiz
https://plus.google.com/118109588008025428145/posts/JVtHsNXfXVP
https://plus.google.com/104359171994284458545/posts/ZegrLhuUEym
https://plus.google.com/114942323043624636591/posts/YZiszpNJwzw
https://plus.google.com/+JonSchull/posts/fE8x5jd86kZ
https://plus.google.com/+JonSchull/posts/MhztSDhzAuF
https://plus.google.com/103358542757806128908/posts/V222HhPQQ6E
https://plus.google.com/+BodoHoenen/posts/UnigG1GhhCf
https://plus.google.com/113429270326471312185/posts/X2daV1bMQ7U
https://plus.google.com/109768266033402232643/posts/aN2na6firKE
https://plus.google.com/115810399850545696521/posts/aNUciEm99AN
https://plus.google.com/116177527871883301032/posts/KrDgLtc5B72
https://plus.google.com/+JonSchull/posts/6pRQQ5zCbh1
https://plus.google.com/102949249122884214306/posts/HpkBRFEmKUr
https://plus.google.com/101778915483023229467/posts/Cg5Vf5C814a
https://plus.google.com/109660538400604979429/posts/YJgkcd9JQ3Q
https://plus.google.com/109477653285830830921/posts/RFH8FDbaeqg
https://plus.google.com/109477653285830830921/posts/c3A4XSLHuft
https://plus.google.com/105767891268944338004/posts/dQBcD7ybb9W
https://plus.google.com/101922679306997675202/posts/RUByUqThDvT
https://plus.google.com/100855033541678294401/posts/NvjizSWcz9R
https://plus.google.com/115810399850545696521/posts/HWoB64bxA1m
https://plus.google.com/115810399850545696521/posts/YBwkNDUi6Mn
https://plus.google.com/115810399850545696521/posts/FY3Rcmx9yhs
https://plus.google.com/+FricisPirtnieks/posts/GSzZiuqX4L3
https://plus.google.com/100059928993759897410/posts/MQnMAWYruBn
https://plus.google.com/103383186601737835809/posts/8HCRHZH5TJm
https://plus.google.com/104405649593463541922/posts/YgdTzKE3T7E
https://plus.google.com/109660538400604979429/posts/eyrYfBEZ9Ca
https://plus.google.com/110607375119839450523/posts/41vQbyVk7s5
https://plus.google.com/114942323043624636591/posts/LrnRuCz3igo
https://plus.google.com/114942323043624636591/posts/XxNyztaBwLi
https://plus.google.com/109660538400604979429/posts/B7tdZR7m1jr
https://plus.google.com/109660538400604979429/posts/D6akG774ydm
https://plus.google.com/115810399850545696521/posts/B47FNnhmhRc
https://plus.google.com/110337357858766708212/posts/gBQ3XAizEft
https://plus.google.com/+AndreasBastian/posts/44ifGXSRpcg
https://plus.google.com/114150067685166238613/posts/CNxk8Nukfoh
https://plus.google.com/109768266033402232643/posts/BVxrw7QuZW5
https://plus.google.com/114150067685166238613/posts/BpboryLWbZN
https://plus.google.com/114942323043624636591/posts/FCbrPB3femz
https://plus.google.com/109477653285830830921/posts/GBAuPBpG882
https://plus.google.com/+DanielDugan/posts/CyzYENFzoqR
https://plus.google.com/114942323043624636591/posts/itjnrWL6oj8
https://plus.google.com/+CarltonDodd/posts/KTYCBUFM2GS
https://plus.google.com/104405649593463541922/posts/fdeHR14V4ni
https://plus.google.com/+JonSchull/posts/PQFxB4hkXrp
https://plus.google.com/106091651277142407946/posts/PFV4vdeznr2
https://plus.google.com/105541894710060070456/posts/Mu7RybvUvJ8
https://plus.google.com/+JonSchull/posts/VTe2v68FXu4
https://plus.google.com/108724462472035498664/posts/D6Hodw8SU23
https://plus.google.com/+JonSchull/posts/V61aZygpbCF
https://plus.google.com/+JonSchull/posts/Sqo8fnsG5Zh
https://plus.google.com/101823439333955577616/posts/ESSLtRCYSjp
https://plus.google.com/111228746602989678854/posts/HqTRJJtsn1q
https://plus.google.com/115254886637436748563/posts/FVYQVfbnz2y
https://plus.google.com/+JonSchull/posts/FdJf3qJ6Efz
https://plus.google.com/115254886637436748563/posts/FJg7DowKnJu
https://plus.google.com/106229069465821506802/posts/Q9dUb9Sjnby
https://plus.google.com/109477653285830830921/posts/QQN8AES9KSx
https://plus.google.com/109477653285830830921/posts/7rVEjcZwveT
https://plus.google.com/+JonSchull/posts/QQ6Uzrz8Rr1
https://plus.google.com/+FricisPirtnieks/posts/aqwo9KbJs2B
https://plus.google.com/+JohnThorpIreland/posts/PXWzNNbwVx3
https://plus.google.com/+JohnThorpIreland/posts/8Y1d7Edrseg
https://plus.google.com/115254886637436748563/posts/YdPYHuK4iKD
https://plus.google.com/103958488150135688449/posts/AEdHg2kg4z6
https://plus.google.com/106661119400621879867/posts/CVuRQEvdLnR
https://plus.google.com/+JonSchull/posts/WDeJJK5NxoH
https://plus.google.com/110607375119839450523/posts/WDxwYE6Sicx
https://plus.google.com/117605010879519445472/posts/2EAXBMAsz6a
https://plus.google.com/109477653285830830921/posts/FE4ZeHxT8Sb
https://plus.google.com/112730226345446644422/posts/ABq4z1WGFS1
https://plus.google.com/+JonSchull/posts/4JM9UL7S9Te
https://plus.google.com/115825383229212150920/posts/bv7Koo5M6qc
https://plus.google.com/109477653285830830921/posts/eM5rwZaGkEu
https://plus.google.com/107060261012350870707/posts/c1JEBSHAkkF
https://plus.google.com/+JonSchull/posts/iL1Yupib3QS
https://plus.google.com/105636905078262744686/posts/32YjVYsueTT
https://plus.google.com/109768266033402232643/posts/NX1R4U7DCDe
https://plus.google.com/110607375119839450523/posts/FahMkA8n7io
https://plus.google.com/+JamesBricknell/posts/N59ee3gvUoq
https://plus.google.com/+JonSchull/posts/G2m45VEdeJx
https://plus.google.com/109660538400604979429/posts/HgJLTxm7tqv
https://plus.google.com/109660538400604979429/posts/3EfPg28S3oW
https://plus.google.com/+BodoHoenen/posts/jW3JkAQA3bf
https://plus.google.com/110118735960368694411/posts/iYnnsThsKQZ
https://plus.google.com/101785874618857894110/posts/e8wT5NPmB3n
https://plus.google.com/104656427678877892756/posts/L5yHDPBVF9Z
https://plus.google.com/105797909841140440265/posts/LcSGAVYoFvE
https://plus.google.com/115810399850545696521/posts/7umrkFjcwrB
https://plus.google.com/+JonSchull/posts/gn5ryi2v1rk
https://plus.google.com/+JonSchull/posts/HyTpYQEUC8a
https://plus.google.com/108069952106177381834/posts/KR123DWrByY
https://plus.google.com/110337357858766708212/posts/VqY73eM4Fju
https://plus.google.com/117388096462688165052/posts/gpWf7UTiECx
https://plus.google.com/115810399850545696521/posts/ayQNsUS3EEe
https://plus.google.com/100275203952627967377/posts/eAUJezQve27
https://plus.google.com/+JoeCross98/posts/da1MiU6ZJup
https://plus.google.com/113756700090208575601/posts/Lrvz7oETdxQ
https://plus.google.com/101778915483023229467/posts/4gUjq8Xt3XC
https://plus.google.com/116959968824531986775/posts/E219AqdgFCf
https://plus.google.com/115810399850545696521/posts/VQMpR2BdSqo
https://plus.google.com/113939225867664629048/posts/RExG218bGYA
https://plus.google.com/117378493405983803043/posts/chxqwfABWUZ
https://plus.google.com/103015456434126891907/posts/L7qf1gH9Hjk
https://plus.google.com/109660538400604979429/posts/haMUYdcz5H1
https://plus.google.com/105500321495924551398/posts/KXWXS3ANmWz
https://plus.google.com/+JoeCross98/posts/eXaJemB43hL
https://plus.google.com/105636905078262744686/posts/ecDgjBojTSJ
https://plus.google.com/118427042528990605638/posts/fugYqfbjhBq
https://plus.google.com/100855033541678294401/posts/2wdyJqq7nCv
https://plus.google.com/110733203332377773030/posts/RCE9BWUrjJQ
https://plus.google.com/100424616371694410976/posts/iyTvdpTUtku
https://plus.google.com/103590293948519605757/posts/fVgXsng9TH6
https://plus.google.com/109477653285830830921/posts/ZL2Pge1ZyWV
https://plus.google.com/109660538400604979429/posts/R3Mzudt3WC2
https://plus.google.com/+ShuvamNayak/posts/c1zmnnTJUMb
https://plus.google.com/114993353557705083527/posts/b3XosN87XcV
https://plus.google.com/106362585429754054744/posts/P8v9J7JN4hj
https://plus.google.com/104689523678025537831/posts/5zMo5ds6XQJ
https://plus.google.com/106802456138612730148/posts/cV6SugeRm5Q
https://plus.google.com/114942323043624636591/posts/aLSytquFJBi
https://plus.google.com/117588470153242888386/posts/RQQsZg8N4PW
https://plus.google.com/106482317562371856912/posts/bQuF7BmYGKX
https://plus.google.com/102580194639535590270/posts/iAeaRTgtb5Y
https://plus.google.com/108586004408295689574/posts/enn1zZiHSxJ
https://plus.google.com/115810399850545696521/posts/L6n4pSgUCtw
https://plus.google.com/+JonSchull/posts/jSA1TWE2N5B
https://plus.google.com/+JonSchull/posts/JdDJetAi4S7
https://plus.google.com/+JonSchull/posts/FxpSywu1mxE
https://plus.google.com/101191065757598782259/posts/XxnnDP2WLjR
https://plus.google.com/+RicardoPereiradesigner/posts/i6GKWw4nwac
https://plus.google.com/104405649593463541922/posts/bgqj7qPnmfZ
https://plus.google.com/102148342701463058726/posts/GZLaiDxcBPc
