status_id,status_message,link_name,status_type,status_link,status_published,num_likes,num_comments,num_shares
929023147220012_1280567232065600,,Superhuman,video,https://www.facebook.com/freethinksuperhuman/videos/1277723019021673/,2017-09-01 10:27:17,2,0,0
929023147220012_1230147730440884,,E-Nable,link,https://goo.gl/Cr8KqL,2017-07-06 02:55:11,0,0,0
929023147220012_1183389051783419,,E-Nable,link,https://goo.gl/3sZ2I8,2017-05-17 12:46:44,2,0,0
929023147220012_1166321206823537,,E-Nable,link,https://powerofhumans.com/2017/05/ten-year-old-girl-without-hand-plays-violin-thanks-college-students-3d-printing-technology/,2017-05-02 15:39:37,1,0,0
929023147220012_1157730364349288,,E-Nable,photo,https://www.facebook.com/enablingthefuture/photos/a.563360593741733.1073741830.554753701269089/1318305928247192/?type=3,2017-04-24 16:16:05,1,0,0
929023147220012_1146977928757865,,E-Nable Germany,video,https://www.facebook.com/enableGermany/videos/2246256005598536/,2017-04-15 12:28:29,3,0,0
929023147220012_1113073035481688,,E-Nable,link,https://goo.gl/VnYWhr,2017-03-13 21:10:37,3,1,0
929023147220012_1111939602261698,Love these great stories.,"Warrington school makes boy, 5, prosthetic hand - BBC News",link,http://www.bbc.co.uk/news/uk-england-merseyside-39225488,2017-03-12 12:58:31,6,0,2
929023147220012_1096089023846756,,E-Nable,link,https://goo.gl/1LdKd0,2017-02-22 02:58:48,6,0,0
929023147220012_1095105543945104,A maker extraordinaire.  Love it.,Tested,link,http://jezebel.com/very-cool-girl-invents-prosthetic-arm-that-shoots-glitt-1792518280,2017-02-20 19:48:44,1,0,0
929023147220012_1089170027871989,"I just found out about this in my 3D printer Facebook group and I would like to help. I have a 3D printer, how do I get involved?",,status,,2017-02-14 20:39:29,0,3,0
929023147220012_1023342524454740,,E-Nable,photo,https://www.facebook.com/enablingthefuture/photos/a.563360593741733.1073741830.554753701269089/1173429366068183/?type=3,2016-12-02 18:18:31,1,0,0
929023147220012_977077199081273,"Wow, look at that smile.",Fundación Prótesis 3D,photo,https://www.facebook.com/fundacionprotesis3d/photos/a.1684526648487254.1073741828.1659304367676149/1770803369859581/?type=3,2016-10-20 19:47:21,2,0,0
929023147220012_976926535763006,What a great display.,Marymount e-Nable,photo,https://www.facebook.com/enablemarymount/photos/a.1024487474289000.1073741829.1023204977750583/1205377279533351/?type=3,2016-10-20 15:12:20,1,0,0
929023147220012_975932922529034,"""Permissionless Innovation""",E-Nable,link,http://www.insidesources.com/a-hand-for-innovation-ivan-owen-jon-schull-and-e-nable/,2016-10-19 11:15:00,0,0,0
929023147220012_972371659551827,Outstanding!,E-Nable,link,https://goo.gl/jFia1T,2016-10-15 20:00:11,1,0,0
929023147220012_941716329284027,,Why wear a prosthetic when you could become a superhero instead?,link,https://www.theguardian.com/technology/2016/jan/27/why-wear-a-prosthetic-when-you-could-become-a-superhero-instead,2016-09-11 17:32:16,0,0,0
929023147220012_941929152596078,It isn't always about a hand-like device.,Dave and Brandy react to Within Reach Design Challenge entries. - YouTube,video,https://youtu.be/qhewSmOv-mc,2016-09-11 06:14:26,1,0,0
929023147220012_939164599539200,Let's help e-Nable France team get a grant of up to 20K€. Click to vote.,Association e-Nable France | Trophees des Associations,link,http://tropheesfondation.edf.com/associations/e-nable-france,2016-09-07 21:39:48,0,0,1
929023147220012_934811049974555,This is what's it's all about.,How 3-D-Printed Prosthetic Hands Are Changing These Kids’ Lives,video,https://www.youtube.com/watch?v=Cl8ijPGEKO8,2016-09-02 16:02:28,0,0,0
929023147220012_934810266641300,I love these stories of teachers bringing the eNable concept to the classroom... coming to a school near you. ;-),UWM Spotlight on Excellence: Shea's new hand,video,https://www.youtube.com/watch?v=OnmLo6ZQmQM,2016-09-02 16:01:07,2,0,1
929023147220012_934455130010147,Great idea for a summer break from school.,Atypical spring break: bring 3D printed prosthetics in Peru,link,http://3dprintingindustry.com/news/atypical-spring-break-bring-3d-printed-prosthetics-peru-76718/,2016-09-02 07:05:45,0,0,0
929023147220012_930984077023919,,E-Nable Canada's cover photo,photo,https://www.facebook.com/enablecanada/photos/a.930984067023920.1073741827.929023147220012/930984010357259/?type=3,2016-08-29 02:50:54,0,0,0
929023147220012_930138217108505,,E-Nable Canada,photo,https://www.facebook.com/enablecanada/photos/a.930138137108513.1073741826.929023147220012/930138143775179/?type=3,2016-08-28 01:51:32,1,0,0
