page_id,comment_id,post_id,origin_id,comment_content,commenter,comment_date,total_emotion_count,like_count,love_count,wow_count,haha_count,sad_count,angry_count,special_emotion_count
<<<<<<< Updated upstream
=======
enablenederland,384428932001771_384438752000789,240953739682625_384428932001771,,Mary Legenza,Lieke Mc Dermott Kelly,2017-12-10 16:52:32,0,0,0,0,0,0,0,0
enablenederland,383482708763060_383589465419051,240953739682625_383482708763060,,"Wellicht kunnen deze scholen jullie helpen: 3DkidsCompany.nl Allemaal in bezit van Ultimaker Original + (2,85 mm).",3Dkanjers,2017-12-08 11:38:40,1,1,0,0,0,0,0,0
enablenederland,383482708763060_384100398701291,240953739682625_383482708763060,,Gedeeld in de groep ;) https://www.facebook.com/groups/564865877038666/,John Vliegen,2017-12-09 19:50:10,0,0,0,0,0,0,0,0
enablenederland,383482708763060_384145732030091,240953739682625_383482708763060,,snap de oproep niet helemaal.,Charles Hommes,2017-12-09 23:19:41,0,0,0,0,0,0,0,0
enablenederland,383482708763060_384206392024025,240953739682625_383482708763060,,Ik heb een ultimaker 3 die ik wel vrij kan maken. Mail me even op paul@sohier.me,Paul Sohier,2017-12-10 03:44:16,0,0,0,0,0,0,0,0
enablenederland,383482708763060_384207502023914,240953739682625_383482708763060,383482708763060_384206392024025,"Goedemorgen Paul, zou je ons een pb kunnen sturen? Via de knop berichten.",E-Nable Nederland,2017-12-10 03:47:53,0,0,0,0,0,0,0,0
enablenederland,383482708763060_384259418685389,240953739682625_383482708763060,,Iets voor de MakAIRsJop ?,Sjoerd Heringa,2017-12-10 06:45:22,1,1,0,0,0,0,0,0
>>>>>>> Stashed changes
