page_id,post_id,post_content,post_user,post_type,post_link,post_date,total_emotion_count,comment_count,share_count,like_count,love_emotion_count,wow_emotion_count,haha_emotion_count,sad_emotion_count,angry_emotion_count,special_emotion_count
<<<<<<< Updated upstream
=======
fundacionprotesis3d,1659304367676149_1962841027322480,"Es necesario aplicar la ingeniería en proyectos sociales, esta fue la conclusión de los creadores de nuestro modelo de impacto social.

Felicitamos a Guillermo, Matias y Eduardo por el increíble trabajo y agradecemos el apoyo de Patricia Jimenez y Nicolas Morales. 

#FP3D #fundaiconprotesis3d #innovacionsocial #emprendimientosocial #teamwork #vocacion #PUCV #ingenierocivilindustrial #defensadetitulo #titulacion #eii #DondeSeJuntanLasIdeas",Photos from Fundación Prótesis 3D's post,photo,https://www.facebook.com/fundacionprotesis3d/photos/a.1684526648487254.1073741828.1659304367676149/1962839137322669/?type=3,2017-12-10 12:50:49,37,1,4,26,0,11,0,0,0,0
fundacionprotesis3d,1659304367676149_1961950584078191,"FP3D presente en fiiS (Festival Internacional de Innovación Social), colaborando como Fundación amiga! 

#fiiS2017 #DondeSeJuntanLasIdeas #FP3D #fundaiconprotesis3d",,photo,https://www.facebook.com/fundacionprotesis3d/photos/a.1684526648487254.1073741828.1659304367676149/1961949477411635/?type=3,2017-12-08 16:44:12,47,0,3,35,0,12,0,0,0,0
>>>>>>> Stashed changes
