page_id,comment_id,post_id,origin_id,comment_content,commenter,comment_date,total_emotion_count,like_count,love_count,wow_count,haha_count,sad_count,angry_count,special_emotion_count
<<<<<<< Updated upstream
=======
fundacionprotesis3d,1962841027322480_1962909383982311,1659304367676149_1962841027322480,,Tengo ortopedia,Daiana Santangelo,2017-12-10 16:19:55,0,0,0,0,0,0,0,0
>>>>>>> Stashed changes
