page_id,comment_id,post_id,origin_id,comment_content,commenter,comment_date,total_emotion_count,like_count,love_count,wow_count,haha_count,sad_count,angry_count,special_emotion_count
<<<<<<< Updated upstream
=======
poparaguay,1505746236157276_1505747759490457,756944077704166_1505746236157276,,Eric Dijkhuis Fercho Vallese 👏👏👏👏✨✨✨,Belén Meza,2017-12-10 16:47:01,0,0,0,0,0,0,0,0
>>>>>>> Stashed changes
