page_id,comment_id,post_id,origin_id,comment_content,commenter,comment_date,total_emotion_count,like_count,love_count,wow_count,haha_count,sad_count,angry_count,special_emotion_count
<<<<<<< Updated upstream
=======
teamunlimbited,1490254797738753_1490309744399925,819535881477318_1490254797738753,,Top effort! Good on them and you.,Jo Hinchliffe,2017-12-10 06:36:56,0,0,0,0,0,0,0,0
teamunlimbited,1490254797738753_1490313251066241,819535881477318_1490254797738753,,So so fantastic 😊😊😊,Joy Houlson-davies,2017-12-10 06:42:12,0,0,0,0,0,0,0,0
teamunlimbited,1490254797738753_1490315111066055,819535881477318_1490254797738753,,A BIG THANK YOU to Apex timber buildings uk for their generosity..their  shed is now part of something inspirational...,Teresa Scullion,2017-12-10 06:44:23,2,2,0,0,0,0,0,0
teamunlimbited,1490254797738753_1490319057732327,819535881477318_1490254797738753,,Can't wait to see it fully kitted out. Top job Apex Timber Buildings buildings👍👍👍,Darryn Mutch,2017-12-10 06:49:52,1,1,0,0,0,0,0,0
teamunlimbited,1490254797738753_1490320151065551,819535881477318_1490254797738753,,That is absolutely fantastic,Neil Lonnon,2017-12-10 06:50:56,0,0,0,0,0,0,0,0
teamunlimbited,1490254797738753_1490323347731898,819535881477318_1490254797738753,,How wonderful. What a lovely thing to do .,Honor Hall,2017-12-10 06:55:35,0,0,0,0,0,0,0,0
teamunlimbited,1490254797738753_1490325731064993,819535881477318_1490254797738753,,"Amazing. What do you need to finish it off? I got all my free time, I could help with some materials you need and I’ve got contacts/friends that are sparkys, plumbers, builders etc",Pete Wright,2017-12-10 06:58:37,2,1,0,1,0,0,0,0
teamunlimbited,1490254797738753_1490329534397946,819535881477318_1490254797738753,,Your a good man Steve! And thanks to the boys who helped donate their time to build it!,Joanne Rea,2017-12-10 07:03:42,0,0,0,0,0,0,0,0
teamunlimbited,1490254797738753_1490335107730722,819535881477318_1490254797738753,,This is wonderful!,Danielle LeKitty,2017-12-10 07:13:08,0,0,0,0,0,0,0,0
teamunlimbited,1490254797738753_1490336947730538,819535881477318_1490254797738753,,Goodness from the Heart!Thank you everyone for all that you do!,Robert James Dunn,2017-12-10 07:16:22,0,0,0,0,0,0,0,0
teamunlimbited,1490254797738753_1490337347730498,819535881477318_1490254797738753,,Sometimes humans can be amazing! Well done Apex timber!,Shelley Owen,2017-12-10 07:17:07,1,1,0,0,0,0,0,0
teamunlimbited,1490254797738753_1490340247730208,819535881477318_1490254797738753,,"Well done Apex, thrilled to see people coming together to do some good in this world!",Natalie Cooper,2017-12-10 07:21:19,0,0,0,0,0,0,0,0
teamunlimbited,1490254797738753_1490344094396490,819535881477318_1490254797738753,,Was a pleasure building this for you thanks for the hospitality hope to see it all kitted out soon,Jimmy Allison,2017-12-10 07:26:33,0,0,0,0,0,0,0,0
teamunlimbited,1490254797738753_1490345524396347,819535881477318_1490254797738753,,Mat Bowtell,Tony Wakefield,2017-12-10 07:29:02,0,0,0,0,0,0,0,0
teamunlimbited,1490254797738753_1490361437728089,819535881477318_1490254797738753,,Fantastic generosity!,Gary T Ashcroft,2017-12-10 07:50:27,0,0,0,0,0,0,0,0
teamunlimbited,1490254797738753_1490370051060561,819535881477318_1490254797738753,,"How wonderful, what a very kind gesture x",Si N Neat Tomlinson,2017-12-10 08:03:02,0,0,0,0,0,0,0,0
teamunlimbited,1490254797738753_1490382301059336,819535881477318_1490254797738753,,That is excellent news.,Julia Shepherd,2017-12-10 08:21:36,0,0,0,0,0,0,0,0
teamunlimbited,1490254797738753_1490386584392241,819535881477318_1490254797738753,,"Congratulations on the new shed, and well done to the fantastic team at apex timber buildings. You're all a true inspiration, and a wonderful example of humanity.",Bob Johnson,2017-12-10 08:27:10,0,0,0,0,0,0,0,0
teamunlimbited,1490254797738753_1490398721057694,819535881477318_1490254797738753,,Great group of guys.  God bless,Nancy Podd,2017-12-10 08:43:16,0,0,0,0,0,0,0,0
teamunlimbited,1490254797738753_1490413917722841,819535881477318_1490254797738753,,Basic kindness is beautiful. I love watching updates from this awesome project.,Gary Richardson,2017-12-10 08:58:48,0,0,0,0,0,0,0,0
teamunlimbited,1490254797738753_1490419974388902,819535881477318_1490254797738753,,Fantastic 👍🏻,Jayne Raper,2017-12-10 09:06:23,0,0,0,0,0,0,0,0
teamunlimbited,1490254797738753_1490441197720113,819535881477318_1490254797738753,,Very kind of them but so well deserved xx,Jean Smith,2017-12-10 09:33:48,0,0,0,0,0,0,0,0
teamunlimbited,1490254797738753_1490451994385700,819535881477318_1490254797738753,,We like Apex very much,Julia Neo Baker,2017-12-10 09:47:49,0,0,0,0,0,0,0,0
teamunlimbited,1490254797738753_1490453734385526,819535881477318_1490254797738753,,Brilliant!,Sue White,2017-12-10 09:49:52,0,0,0,0,0,0,0,0
teamunlimbited,1490254797738753_1490463797717853,819535881477318_1490254797738753,, [[STICKER]],Atlai Mendez,2017-12-10 10:02:59,0,0,0,0,0,0,0,0
teamunlimbited,1490254797738753_1490467654384134,819535881477318_1490254797738753,,You guys are all amazing. I think I've got something in my eye. 😪,Gail Povey,2017-12-10 10:07:05,0,0,0,0,0,0,0,0
teamunlimbited,1490254797738753_1490477001049866,819535881477318_1490254797738753,,"Looks great , brilliant",Gloria Joyce Husk,2017-12-10 10:17:17,0,0,0,0,0,0,0,0
teamunlimbited,1490254797738753_1490502164380683,819535881477318_1490254797738753,,Well done Apex great job greater gift xxx,Eileen Bays,2017-12-10 10:42:35,0,0,0,0,0,0,0,0
teamunlimbited,1490254797738753_1490515781045988,819535881477318_1490254797738753,,Such an amazing gift for such an amazing person & cause-well done to Apex -a fantastic team effort- superstars  all of you  😀,Kirstie Harper,2017-12-10 10:59:33,0,0,0,0,0,0,0,0
teamunlimbited,1490254797738753_1490520587712174,819535881477318_1490254797738753,,"Wow, wow, wow! Amazing people doing amazing work.",Joanne Davis,2017-12-10 11:03:58,0,0,0,0,0,0,0,0
teamunlimbited,1490254797738753_1490576704373229,819535881477318_1490254797738753,, [[STICKER]],Andy Relf,2017-12-10 12:17:56,0,0,0,0,0,0,0,0
teamunlimbited,1490254797738753_1490576784373221,819535881477318_1490254797738753,,"Brilliant, keep up the fantastic work.",Andy Relf,2017-12-10 12:18:02,1,1,0,0,0,0,0,0
teamunlimbited,1490254797738753_1490622737701959,819535881477318_1490254797738753,,Well done to Steve and Apex. Brilliant gesture from a fellow Stocktonian (I may have just made that up!),Martin Sharp,2017-12-10 13:19:17,0,0,0,0,0,0,0,0
teamunlimbited,1490254797738753_1490649487699284,819535881477318_1490254797738753,,Wonderful,Maggie Strodder,2017-12-10 13:57:28,0,0,0,0,0,0,0,0
teamunlimbited,1490254797738753_1490664911031075,819535881477318_1490254797738753,,How fantastic well done apex sheds such a fabulous gesture for a fabulous man 👏🏻👏🏻👏🏻 keep doin what your doin team unlimbited. awesome. Not all superheroes wear capes !!,Nadine Doyle,2017-12-10 14:18:33,0,0,0,0,0,0,0,0
teamunlimbited,1490254797738753_1490680804362819,819535881477318_1490254797738753,,Such generosity... Absolutely amazing xx,Sian Matthews,2017-12-10 14:32:47,1,1,0,0,0,0,0,0
teamunlimbited,1490254797738753_1490687944362105,819535881477318_1490254797738753,,Well done Apex! This is community spirit. ❤️❤️❤️❤️👍🏻👍🏻👍🏻,GlobalWelsh,2017-12-10 14:42:39,0,0,0,0,0,0,0,0
teamunlimbited,1490254797738753_1490707181026848,819535881477318_1490254797738753,,Wow ! That's a fabulous gesture Steven . I can see why you wanted to help such a lovely cause ... 👍 big WELL DONE,Diane Williamson,2017-12-10 15:11:25,0,0,0,0,0,0,0,0
teamunlimbited,1490254797738753_1490733527690880,819535881477318_1490254797738753,,How amazing.  There really  is some amazing kind people out there well done apex sheds 🙌🏼 and well deserved  ❤️❤️,Megan Watson,2017-12-10 15:53:44,0,0,0,0,0,0,0,0
teamunlimbited,1490254797738753_1490737204357179,819535881477318_1490254797738753,,What a lovely gesture 👍,Julie Blackler,2017-12-10 15:59:46,0,0,0,0,0,0,0,0
>>>>>>> Stashed changes
